Chip Name: TDSV2-00115
Board Name: FPGA-2
Tester: xx
Time: 2018-08-06 12:12:43.253323


Test Name: I2C  Time: 2018-08-06 12:13:25.537075

TestI2C Passed!

End Time: 2018-08-06 12:13:26.465067


Test Name: PRBS  Time: 2018-08-06 12:13:26.465460

TestPRBS Passed!

End Time: 2018-08-06 12:14:26.992506


Test Name: Router_Protocol  Time: 2018-08-06 12:14:26.992910
stop time out failed 1 times!

TestRouter_Protocol Passed!

End Time: 2018-08-06 12:14:37.536204


Test Name: Trigger  Time: 2018-08-06 12:14:37.536607
No Data Received for 1 times!
LUT 1 Failed for 1 number of right words: 50 number of wrong words 177
LUT 1 Failed for 2 number of right words: 50 number of wrong words 174
LUT 1 Failed for 3 number of right words: 51 number of wrong words 176
LUT 1 Failed for 4 number of right words: 49 number of wrong words 172
Wrong words: 
1 1 1 13e7,1 1 1 0782,1 1 0 0bf2,1 1 1 1f84,1 1 1 1e61,1 1 1 181f,1 1 0 13f2,1 1 1 1ff3,1 1 1 13e7,1 1 1 1cfc,1 1 1 09cf,1 1 1 1f84,1 1 1 13e0,1 1 1 19ff,1 1 1 1ff3,
1 1 1 1f84,1 1 1 1e61,1 1 1 1007,1 1 0 1272,1 1 1 1fe7,1 1 1 1c08,1 1 1 0905,1 1 1 1f80,1 1 1 13e4,1 1 1 04e7,1 1 1 1ff3,1 1 1 1f9c,1 1 1 0e07,1 1 1 0600,1 1 0 13f2,
1 1 1 1ff3,1 1 1 1fe7,1 1 1 1c18,1 1 1 0f05,1 1 1 1f84,1 1 0 1ffe,1 1 1 13e0,1 1 1 0790,1 1 1 0bf0,1 1 1 1fe4,1 1 1 1e61,1 1 1 0700,1 1 0 1026,1 1 1 1ff3,1 1 1 1fe7,
1 1 1 1cfc,1 1 1 0903,1 1 1 1fe4,1 1 1 1fe7,1 1 1 1ce7,1 1 1 0482,1 1 1 1ff3,1 1 1 1f9f,1 1 1 1e71,1 1 1 1f30,1 1 0 1026,1 1 1 13ff,1 1 1 1ff3,1 1 1 13e7,1 1 1 1cfc,
1 1 1 0903,1 1 1 1fe4,1 1 0 1ffe,1 1 1 13e7,1 1 1 0782,1 1 1 0bfc,1 1 1 1fe4,1 1 1 0c01,1 1 1 07f3,1 1 1 13f3,1 1 1 1ff3,1 1 1 13e7,1 1 1 0609,1 1 1 18ff,1 1 1 1f84,
1 1 0 1ffe,1 1 1 13e7,1 1 1 0782,1 1 1 0bfc,1 1 1 1f80,1 1 1 0c01,1 1 1 1f30,1 1 1 13f3,1 1 1 1ff1,1 1 1 1ff9,1 1 1 09cf,1 1 1 1fe4,1 1 1 13e7,1 1 1 0c7f,1 1 1 1fc3,
1 1 1 0e07,1 1 1 1f30,1 1 0 13f2,1 1 1 1ff3,1 1 1 13e7,1 1 1 1cfc,1 1 1 0f05,1 1 1 1f84,1 1 0 1010,1 1 1 0782,1 1 1 03ff,1 1 1 1f9f,1 1 1 0e07,1 1 1 0600,1 1 1 13f3,
1 1 1 1ff3,1 1 1 13e7,1 1 1 020f,1 1 1 1c9f,1 1 0 1ffe,1 1 1 1fe7,1 1 1 0481,1 1 0 0bf0,1 1 1 1e61,1 1 1 181f,1 1 1 13f3,1 1 1 1ff3,1 1 1 13ff,1 1 1 1cfc,1 1 1 09cf,
1 1 1 1f84,1 1 0 1ffe,1 1 1 13e7,1 1 1 0782,1 1 0 07f2,1 1 1 199f,1 1 1 1e61,1 1 1 1f30,1 1 0 1026,1 1 1 13ff,1 1 1 1ff3,1 1 1 13e7,1 1 1 0609,1 1 1 0f05,1 1 1 1f90,
1 1 0 1ffe,1 1 1 13e7,1 1 1 0482,1 1 0 0bf2,1 1 1 1f9f,1 1 1 1e61,1 1 1 0600,1 1 1 13f3,1 1 1 1ff3,1 1 1 13ff,1 1 1 1cfc,1 1 1 08cf,1 1 1 1f90,1 1 1 13e7,1 1 1 0c7f,
1 1 1 1ff3,1 1 1 1e1c,1 1 1 1c39,1 1 1 181f,1 1 1 13f3,1 1 1 1ff3,1 1 1 1ff3,1 1 1 13e7,1 1 1 1e09,1 1 1 0905,1 1 1 1f9f,1 1 0 1ffe,1 1 0 1330,1 1 1 0467,1 1 1 0bfc,
1 1 1 1e1f,1 1 1 0c01,1 1 1 1f30,1 1 0 1062,1 1 1 1ff3,1 1 1 13ff,1 1 1 1cff,


Phase Shift: 1
LUT 1 Failed for 1 number of right words: 46 number of wrong words 177
LUT 1 Failed for 2 number of right words: 50 number of wrong words 178
LUT 1 Failed for 3 number of right words: 46 number of wrong words 180
LUT 1 Failed for 4 number of right words: 51 number of wrong words 175
Wrong words: 
1 1 1 0c7f,1 1 1 0bfc,1 1 1 1fe4,1 1 1 0c01,1 1 1 1f9f,1 1 0 1066,1 1 1 1ff3,1 1 1 13e7,1 1 1 1cff,1 1 1 0905,1 1 1 1f90,1 1 1 13e7,1 1 1 04e7,1 1 1 0bf0,1 1 1 1f9c,
1 1 1 1e61,1 1 1 1007,1 1 0 13f2,1 1 1 1ff3,1 1 1 13ff,1 1 1 1cfc,1 1 1 18ff,1 1 1 1f9c,1 1 0 1ffe,1 1 0 13e0,1 1 1 0482,1 1 0 07f2,1 1 1 1fe4,1 1 1 0c07,1 1 1 181f,
1 1 0 1826,1 1 1 1ff3,1 1 1 1ff9,1 1 1 1cfc,1 1 1 0905,1 1 1 1fe4,1 1 0 1ffe,1 1 1 13e7,1 1 1 0782,1 1 0 0bf0,1 1 1 1f90,1 1 1 1e61,1 1 1 1f30,1 1 1 13f3,1 1 1 1ff3,
1 1 1 13e7,1 1 1 1c19,1 1 1 0f05,1 1 1 1f84,1 1 0 1ffe,1 1 1 13e7,1 1 1 0481,1 1 0 0bf2,1 1 1 1f9f,1 1 1 1e61,1 1 1 181f,1 1 1 13f0,1 1 1 13e7,1 1 1 1c09,1 1 1 09cf,
1 1 1 1f90,1 1 0 1ffe,1 1 1 13e7,1 1 1 0c4f,1 1 0 0bf2,1 1 1 1f90,1 1 1 1e61,1 1 1 1f30,1 1 1 13fc,1 1 1 1ff3,1 1 1 13e7,1 1 1 1cfc,1 1 1 13f3,1 1 1 1f80,1 1 0 1ffe,
1 1 1 13e0,1 1 1 19f1,1 1 1 1ff3,1 1 1 1e1f,1 1 1 1f30,1 1 1 13f3,1 1 1 1ff3,1 1 1 13e7,1 1 1 1cfc,1 1 1 08ff,1 1 1 1f84,1 1 1 13e7,1 1 1 0782,1 1 1 0bfc,1 1 1 1f84,
1 1 1 0c01,1 1 1 0600,1 1 1 083f,1 1 1 1ff3,1 1 1 13e7,1 1 1 0f05,1 1 1 1f9f,1 1 1 13e7,1 1 1 0481,1 1 1 1ff3,1 1 1 1f9f,1 1 1 1cff,1 1 1 1f30,1 1 0 13f2,1 1 1 1ff3,
1 1 1 13e7,1 1 1 1c08,1 1 1 0905,1 1 1 1f9f,1 1 0 1ffe,1 1 1 13e7,1 1 1 0782,1 1 1 1ff3,1 1 1 1f90,1 1 1 0c01,1 1 1 1f30,1 1 1 13f3,1 1 1 13e7,1 1 1 1c09,1 1 1 0905,
1 1 1 1f9f,1 1 0 1ffe,1 1 1 13e7,1 1 1 1e4f,1 1 1 0bfc,1 1 1 1f80,1 1 1 1f31,1 1 0 1826,1 1 1 1ff3,1 1 1 13e7,1 1 1 1cfc,1 1 1 0f05,1 1 1 13e0,1 1 1 1e4f,1 1 1 1fc3,
1 1 1 1f90,1 1 1 1f87,1 1 1 1f30,1 1 1 13f3,1 1 1 13ff,1 1 1 1ff3,1 1 1 13e7,1 1 1 1cfc,1 1 1 189f,1 1 1 1f90,1 1 1 1fe7,1 1 1 1fe7,1 1 1 0c4f,1 1 1 0bf0,1 1 1 1fe4,
1 1 1 181f,1 1 0 13f2,1 1 1 13ff,1 1 1 1ff3,1 1 0 1fe6,1 1 1 060f,1 1 1 13e3,1 1 1 1f80,1 1 0 1ffe,1 1 1 13e7,1 1 1 0482,1 1 1 1fc3,1 1 1 1f84,1 1 1 0c01,1 1 1 1007,
1 1 0 1826,1 1 1 1ff3,1 1 1 13e7,1 1 1 1cfc,1 1 1 1c9f,1 1 1 1f84,1 1 0 1ffe,1 1 1 13e7,1 1 1 0c7f,1 1 0 0bf0,


Phase Shift: 2
LUT 1 Failed for 1 number of right words: 35 number of wrong words 192
LUT 1 Failed for 2 number of right words: 40 number of wrong words 186
LUT 1 Failed for 3 number of right words: 29 number of wrong words 197
LUT 1 Failed for 4 number of right words: 35 number of wrong words 190
Wrong words: 
1 1 0 1ffe,1 1 0 1ff8,1 1 1 1fcf,1 1 1 0cc1,1 1 1 0347,1 1 1 1ff3,1 1 0 1026,1 1 1 078c,1 1 1 0647,1 1 1 1e1f,1 1 1 19f3,1 1 0 1012,1 1 1 1fcf,1 1 1 01ff,1 1 0 1ffe,
1 1 1 1ff9,1 1 1 191f,1 1 1 0cc1,1 1 1 1147,1 1 1 130f,1 1 1 1cf9,1 1 0 1ce0,1 1 1 0247,1 1 1 19cf,1 1 0 1012,1 1 1 1c3f,1 1 1 01ff,1 1 1 1ff9,1 1 1 0624,1 1 1 1900,
1 1 1 1ce7,1 1 1 07cc,1 1 1 0fff,1 1 0 1f9e,1 1 1 01ff,1 1 1 184c,1 1 0 1310,1 1 1 1fcf,1 1 1 1e67,1 1 1 01ff,1 1 0 1ffe,1 1 0 1ffe,1 1 1 091f,1 1 1 0fc3,1 1 1 1900,
1 1 1 0e7f,1 1 1 1cf1,1 1 1 1ccc,1 1 1 0ff3,1 1 0 1f9e,1 1 1 01ff,1 1 1 19cf,1 1 1 0033,1 1 1 1fcf,1 1 1 03c3,1 1 1 1980,1 1 1 104f,1 1 1 1ff1,1 1 0 1cf0,1 1 1 0247,
1 1 0 1f9e,1 1 1 01ff,1 1 1 19f3,1 1 0 1812,1 1 1 1fcf,1 1 1 1f9f,1 1 0 1ff8,1 1 1 091f,1 1 1 0624,1 1 1 1900,1 1 1 0e7f,1 1 1 1cf9,1 1 0 1cc0,1 1 1 1f33,1 1 1 1e1f,
1 1 1 1f3f,1 1 1 184c,1 1 1 067f,1 1 1 1fcf,1 1 1 1ff3,1 1 0 1ffe,1 1 1 083f,1 1 1 0fc1,1 1 1 1861,1 1 1 100f,1 1 0 1c26,1 1 0 1cc0,1 1 1 0247,1 1 0 1f9e,1 1 1 01ff,
1 1 1 19f3,1 1 0 1812,1 1 1 1fcf,1 1 0 1ffe,1 1 1 1e1f,1 1 1 1fcf,1 1 1 065c,1 1 1 19c0,1 1 1 0e7f,1 1 0 1c26,1 1 1 078c,1 1 1 1f33,1 1 1 1c9f,1 1 1 199f,1 1 1 19f3,
1 1 1 067f,1 1 1 1f0f,1 1 1 1fe7,1 1 0 1ff8,1 1 1 091f,1 1 1 0fc1,1 1 1 19e0,1 1 1 039f,1 1 1 1cf9,1 1 0 1ce0,1 1 1 0ff3,1 1 1 1f9f,1 1 1 19f3,1 1 0 1012,1 1 1 1fcf,
1 1 1 01ff,1 1 0 1ffe,1 1 1 1ff9,1 1 1 1fcf,1 1 1 0899,1 1 1 1900,1 1 1 0e7f,1 1 0 1c26,1 1 1 1fcc,1 1 1 1ff3,1 1 1 01ff,1 1 1 184c,1 1 0 1812,1 1 1 1fcf,1 1 1 1fe7,
1 1 0 1ffe,1 1 0 1ffe,1 1 1 091f,1 1 1 181f,1 1 1 19e0,1 1 1 039f,1 1 1 1cf9,1 1 1 1fcc,1 1 1 0247,1 1 1 1f9f,1 1 1 1f3f,1 1 1 1fe3,1 1 1 0073,1 1 1 1fcf,1 1 1 061c,
1 1 1 1860,1 1 1 139f,1 1 0 1c26,1 1 1 078f,1 1 1 020f,1 1 1 1e1f,1 1 1 01ff,1 1 1 19f3,1 1 1 067f,1 1 1 1fcf,1 1 1 1c3f,1 1 1 01ff,1 1 0 1ffe,1 1 1 091f,1 1 1 0624,
1 1 1 19e0,1 1 1 130f,1 1 1 1ce7,1 1 0 1ce0,1 1 1 0ff3,1 1 1 199f,1 1 1 19f3,1 1 1 0ff9,1 1 1 1f0f,1 1 1 1c3f,1 1 1 01ff,1 1 0 1ffe,1 1 1 091f,1 1 1 0fc1,1 1 1 1878,
1 1 1 1c4f,1 1 0 1c26,1 1 0 1cf0,1 1 1 0247,1 1 1 18ff,1 1 1 1f3f,1 1 1 19f3,1 1 0 1812,1 1 1 1fcf,1 1 1 1ce7,


Phase Shift: 3
LUT 1 Failed for 1 number of right words: 171 number of wrong words 53
LUT 1 Failed for 2 number of right words: 172 number of wrong words 58
LUT 1 Failed for 3 number of right words: 170 number of wrong words 57
LUT 1 Failed for 4 number of right words: 169 number of wrong words 58
Wrong words: 
1 1 1 0003,1 1 1 019c,1 1 1 0278,1 1 1 1ff9,1 1 1 13f3,1 1 1 111c,1 1 1 083f,1 1 1 0239,1 1 1 13ff,1 1 1 061f,1 1 1 133f,1 1 1 07f9,1 1 1 1ccf,1 1 0 103e,1 1 1 183f,
1 1 1 0339,1 1 1 10f3,1 1 1 015f,1 1 1 099f,1 1 1 0c3f,1 1 1 13f3,1 1 1 019f,1 1 1 083f,1 1 1 133f,1 1 1 13ff,1 1 1 1ffc,1 1 1 07cf,1 1 1 007f,1 1 1 1f33,1 1 1 133f,
1 1 1 13ff,1 1 1 099f,1 1 1 001f,1 1 1 133f,1 1 1 10c3,1 1 0 011c,1 1 1 0339,1 1 1 13f3,1 1 0 1ffe,1 1 0 113c,1 1 1 083f,1 1 1 0339,1 1 1 1f3f,1 1 0 1026,1 1 1 0239,
1 1 1 13c3,1 1 0 1ffe,1 1 1 060f,1 1 1 0238,1 1 0 1e7c,1 1 1 019c,1 1 1 0238,1 1 0 063c,1 1 1 0003,1 1 1 078f,1 1 1 083f,1 1 1 0c1f,1 1 1 1ccf,


Phase Shift: 4
LUT 1 Failed for 1 number of right words: 205 number of wrong words 22
LUT 1 Failed for 2 number of right words: 209 number of wrong words 18
LUT 1 Failed for 3 number of right words: 203 number of wrong words 24
LUT 1 Failed for 4 number of right words: 212 number of wrong words 18
Wrong words: 
1 1 1 1ff9,1 1 1 1f9f,1 1 1 1ff9,1 1 1 1f9f,1 1 1 1fcf,1 1 1 1f9f,1 1 1 1f9f,1 1 1 019f,1 1 1 1ff9,1 1 1 1fcf,1 1 1 1f9f,1 1 1 1fcf,1 1 1 1f9f,1 1 1 1f9f,1 1 1 1f9f,
1 1 1 1ff9,1 1 1 1fcf,1 1 1 1f9f,


Phase Shift: 5

TestTrigger Passed!

End Time: 2018-08-06 12:15:00.288599


Test Name: Bypass_Trigger  Time: 2018-08-06 12:15:00.288936

TestBypass_Trigger Passed!

End Time: 2018-08-06 12:16:01.497105


Test Name: Pad_Mode  Time: 2018-08-06 12:16:01.497500
Channel: 0
Channel   0: phase 13 Expected:    0 Received:    0 Clock phase reset: 1 Passed!
Channel   0: phase 03 Expected:  585 Received:    0 Clock phase reset: 1 Failed 1 times!
Channel: 0
Channel   0: phase 13 Expected:    0 Received:    0 Clock phase reset: 1 Passed!
Channel   0: phase 03 Expected:  585 Received:  585 Clock phase reset: 1 Passed!
Channel   0: phase 16 Expected: 1365 Received: 1366 Clock phase reset: 1 Passed!
Channel   0: phase 06 Expected: 2457 Received: 2457 Clock phase reset: 1 Passed!
Channel   0: phase 1c Expected: 4095 Received: 4093 Clock phase reset: 1 Passed!
Channel   0: phase 0c Expected: 2457 Received: 2457 Clock phase reset: 1 Passed!
Channel   0: phase 19 Expected: 1365 Received: 1366 Clock phase reset: 1 Passed!
Channel   0: phase 09 Expected:  585 Received:  585 Clock phase reset: 1 Passed!
Channel   0: phase 13 Expected:    0 Received:    0 Clock phase reset: 1 Passed!
Channel 0 passed!
Channel: 1
Channel   1: phase 13 Expected:    0 Received:    0 Clock phase reset: 1 Passed!
Channel   1: phase 03 Expected:  585 Received:  585 Clock phase reset: 1 Passed!
Channel   1: phase 16 Expected: 1365 Received: 1366 Clock phase reset: 1 Passed!
Channel   1: phase 06 Expected: 2457 Received: 2454 Clock phase reset: 1 Passed!
Channel   1: phase 1c Expected: 4095 Received: 4092 Clock phase reset: 1 Passed!
Channel   1: phase 0c Expected: 2457 Received: 2457 Clock phase reset: 1 Passed!
Channel   1: phase 19 Expected: 1365 Received: 1366 Clock phase reset: 1 Passed!
Channel   1: phase 09 Expected:  585 Received:  585 Clock phase reset: 1 Passed!
Channel   1: phase 13 Expected:    0 Received:    0 Clock phase reset: 1 Passed!
Channel 1 passed!
Channel: 2
Channel   2: phase 13 Expected:    0 Received:    0 Clock phase reset: 1 Passed!
Channel   2: phase 03 Expected:  585 Received:  585 Clock phase reset: 1 Passed!
Channel   2: phase 16 Expected: 1365 Received: 1364 Clock phase reset: 1 Passed!
Channel   2: phase 06 Expected: 2457 Received: 2455 Clock phase reset: 1 Passed!
Channel   2: phase 1c Expected: 4095 Received: 4092 Clock phase reset: 1 Passed!
Channel   2: phase 0c Expected: 2457 Received: 2454 Clock phase reset: 1 Passed!
Channel   2: phase 19 Expected: 1365 Received: 1364 Clock phase reset: 1 Passed!
Channel   2: phase 09 Expected:  585 Received:  584 Clock phase reset: 1 Passed!
Channel   2: phase 13 Expected:    0 Received:    0 Clock phase reset: 1 Passed!
Channel 2 passed!
Channel: 3
Channel   3: phase 13 Expected:    0 Received:    0 Clock phase reset: 1 Passed!
Channel   3: phase 03 Expected:  585 Received:  585 Clock phase reset: 1 Passed!
Channel   3: phase 16 Expected: 1365 Received: 1364 Clock phase reset: 1 Passed!
Channel   3: phase 06 Expected: 2457 Received: 2457 Clock phase reset: 1 Passed!
Channel   3: phase 1c Expected: 4095 Received: 4093 Clock phase reset: 1 Passed!
Channel   3: phase 0c Expected: 2457 Received: 2456 Clock phase reset: 1 Passed!
Channel   3: phase 19 Expected: 1365 Received: 1364 Clock phase reset: 1 Passed!
Channel   3: phase 09 Expected:  585 Received:  585 Clock phase reset: 1 Passed!
Channel   3: phase 13 Expected:    0 Received:    0 Clock phase reset: 1 Passed!
Channel 3 passed!
Channel: 4
Channel   4: phase 13 Expected:    0 Received:    0 Clock phase reset: 1 Passed!
Channel   4: phase 03 Expected:  585 Received:  585 Clock phase reset: 1 Passed!
Channel   4: phase 16 Expected: 1365 Received: 1365 Clock phase reset: 1 Passed!
Channel   4: phase 06 Expected: 2457 Received: 2457 Clock phase reset: 1 Passed!
Channel   4: phase 1c Expected: 4095 Received: 4092 Clock phase reset: 1 Passed!
Channel   4: phase 0c Expected: 2457 Received: 2457 Clock phase reset: 1 Passed!
Channel   4: phase 19 Expected: 1365 Received: 1365 Clock phase reset: 1 Passed!
Channel   4: phase 09 Expected:  585 Received:  585 Clock phase reset: 1 Passed!
Channel   4: phase 13 Expected:    0 Received:    0 Clock phase reset: 1 Passed!
Channel 4 passed!
Channel: 5
Channel   5: phase 13 Expected:    0 Received:    0 Clock phase reset: 1 Passed!
Channel   5: phase 03 Expected:  585 Received:  584 Clock phase reset: 1 Passed!
Channel   5: phase 16 Expected: 1365 Received: 1366 Clock phase reset: 1 Passed!
Channel   5: phase 06 Expected: 2457 Received: 2457 Clock phase reset: 1 Passed!
Channel   5: phase 1c Expected: 4095 Received: 4092 Clock phase reset: 1 Passed!
Channel   5: phase 0c Expected: 2457 Received: 2457 Clock phase reset: 1 Passed!
Channel   5: phase 19 Expected: 1365 Received: 1365 Clock phase reset: 1 Passed!
Channel   5: phase 09 Expected:  585 Received:  585 Clock phase reset: 1 Passed!
Channel   5: phase 13 Expected:    0 Received:    0 Clock phase reset: 1 Passed!
Channel 5 passed!
Channel: 6
Channel   6: phase 13 Expected:    0 Received:    0 Clock phase reset: 1 Passed!
Channel   6: phase 03 Expected:  585 Received:  585 Clock phase reset: 1 Passed!
Channel   6: phase 16 Expected: 1365 Received: 1366 Clock phase reset: 1 Passed!
Channel   6: phase 06 Expected: 2457 Received: 2457 Clock phase reset: 1 Passed!
Channel   6: phase 1c Expected: 4095 Received: 4094 Clock phase reset: 1 Passed!
Channel   6: phase 0c Expected: 2457 Received: 2457 Clock phase reset: 1 Passed!
Channel   6: phase 19 Expected: 1365 Received: 1366 Clock phase reset: 1 Passed!
Channel   6: phase 09 Expected:  585 Received:  585 Clock phase reset: 1 Passed!
Channel   6: phase 13 Expected:    0 Received:    0 Clock phase reset: 1 Passed!
Channel 6 passed!
Channel: 7
Channel   7: phase 13 Expected:    0 Received:    0 Clock phase reset: 1 Passed!
Channel   7: phase 03 Expected:  585 Received:  585 Clock phase reset: 1 Passed!
Channel   7: phase 16 Expected: 1365 Received: 1364 Clock phase reset: 1 Passed!
Channel   7: phase 06 Expected: 2457 Received: 2455 Clock phase reset: 1 Passed!
Channel   7: phase 1c Expected: 4095 Received: 4092 Clock phase reset: 1 Passed!
Channel   7: phase 0c Expected: 2457 Received: 2454 Clock phase reset: 1 Passed!
Channel   7: phase 19 Expected: 1365 Received: 1364 Clock phase reset: 1 Passed!
Channel   7: phase 09 Expected:  585 Received:  584 Clock phase reset: 1 Passed!
Channel   7: phase 13 Expected:    0 Received:    0 Clock phase reset: 1 Passed!
Channel 7 passed!
Channel: 8
Channel   8: phase 13 Expected:    0 Received:    0 Clock phase reset: 1 Passed!
Channel   8: phase 03 Expected:  585 Received:  585 Clock phase reset: 1 Passed!
Channel   8: phase 16 Expected: 1365 Received: 1364 Clock phase reset: 1 Passed!
Channel   8: phase 06 Expected: 2457 Received: 2457 Clock phase reset: 1 Passed!
Channel   8: phase 1c Expected: 4095 Received: 4093 Clock phase reset: 1 Passed!
Channel   8: phase 0c Expected: 2457 Received: 2456 Clock phase reset: 1 Passed!
Channel   8: phase 19 Expected: 1365 Received: 1364 Clock phase reset: 1 Passed!
Channel   8: phase 09 Expected:  585 Received:  585 Clock phase reset: 1 Passed!
Channel   8: phase 13 Expected:    0 Received:    0 Clock phase reset: 1 Passed!
Channel 8 passed!
Channel: 9
Channel   9: phase 13 Expected:    0 Received:    0 Clock phase reset: 1 Passed!
Channel   9: phase 03 Expected:  585 Received:  584 Clock phase reset: 1 Passed!
Channel   9: phase 16 Expected: 1365 Received: 1365 Clock phase reset: 1 Passed!
Channel   9: phase 06 Expected: 2457 Received: 2457 Clock phase reset: 1 Passed!
Channel   9: phase 1c Expected: 4095 Received: 4092 Clock phase reset: 1 Passed!
Channel   9: phase 0c Expected: 2457 Received: 2457 Clock phase reset: 1 Passed!
Channel   9: phase 19 Expected: 1365 Received: 1365 Clock phase reset: 1 Passed!
Channel   9: phase 09 Expected:  585 Received:  585 Clock phase reset: 1 Passed!
Channel   9: phase 13 Expected:    0 Received:    0 Clock phase reset: 1 Passed!
Channel 9 passed!
Channel: 10
Channel  10: phase 13 Expected:    0 Received:    0 Clock phase reset: 1 Passed!
Channel  10: phase 03 Expected:  585 Received:  585 Clock phase reset: 1 Passed!
Channel  10: phase 16 Expected: 1365 Received: 1366 Clock phase reset: 1 Passed!
Channel  10: phase 06 Expected: 2457 Received: 2457 Clock phase reset: 1 Passed!
Channel  10: phase 1c Expected: 4095 Received: 4093 Clock phase reset: 1 Passed!
Channel  10: phase 0c Expected: 2457 Received: 2457 Clock phase reset: 1 Passed!
Channel  10: phase 19 Expected: 1365 Received: 1366 Clock phase reset: 1 Passed!
Channel  10: phase 09 Expected:  585 Received:  585 Clock phase reset: 1 Passed!
Channel  10: phase 13 Expected:    0 Received:    0 Clock phase reset: 1 Passed!
Channel 10 passed!
Channel: 11
Channel  11: phase 13 Expected:    0 Received:    0 Clock phase reset: 1 Passed!
Channel  11: phase 03 Expected:  585 Received:  584 Clock phase reset: 1 Passed!
Channel  11: phase 16 Expected: 1365 Received: 1366 Clock phase reset: 1 Passed!
Channel  11: phase 06 Expected: 2457 Received: 2453 Clock phase reset: 1 Passed!
Channel  11: phase 1c Expected: 4095 Received: 4092 Clock phase reset: 1 Passed!
Channel  11: phase 0c Expected: 2457 Received: 2457 Clock phase reset: 1 Passed!
Channel  11: phase 19 Expected: 1365 Received: 1364 Clock phase reset: 1 Passed!
Channel  11: phase 09 Expected:  585 Received:  585 Clock phase reset: 1 Passed!
Channel  11: phase 13 Expected:    0 Received:    0 Clock phase reset: 1 Passed!
Channel 11 passed!
Channel: 12
Channel  12: phase 13 Expected:    0 Received:    0 Clock phase reset: 1 Passed!
Channel  12: phase 03 Expected:  585 Received:  585 Clock phase reset: 1 Passed!
Channel  12: phase 16 Expected: 1365 Received: 1364 Clock phase reset: 1 Passed!
Channel  12: phase 06 Expected: 2457 Received: 2456 Clock phase reset: 1 Passed!
Channel  12: phase 1c Expected: 4095 Received: 4092 Clock phase reset: 1 Passed!
Channel  12: phase 0c Expected: 2457 Received: 2455 Clock phase reset: 1 Passed!
Channel  12: phase 19 Expected: 1365 Received: 1364 Clock phase reset: 1 Passed!
Channel  12: phase 09 Expected:  585 Received:  585 Clock phase reset: 1 Passed!
Channel  12: phase 13 Expected:    0 Received:    0 Clock phase reset: 1 Passed!
Channel 12 passed!
Channel: 13
Channel  13: phase 13 Expected:    0 Received:    0 Clock phase reset: 1 Passed!
Channel  13: phase 03 Expected:  585 Received:    0 Clock phase reset: 1 Failed 1 times!
Channel: 13
Channel  13: phase 13 Expected:    0 Received:    0 Clock phase reset: 1 Passed!
Channel  13: phase 03 Expected:  585 Received:    0 Clock phase reset: 1 Failed 2 times!
Channel: 13
Channel  13: phase 13 Expected:    0 Received:    0 Clock phase reset: 1 Passed!
Channel  13: phase 03 Expected:  585 Received:  585 Clock phase reset: 1 Passed!
Channel  13: phase 16 Expected: 1365 Received: 1364 Clock phase reset: 1 Passed!
Channel  13: phase 06 Expected: 2457 Received: 2454 Clock phase reset: 1 Passed!
Channel  13: phase 1c Expected: 4095 Received: 4092 Clock phase reset: 1 Passed!
Channel  13: phase 0c Expected: 2457 Received: 2457 Clock phase reset: 1 Passed!
Channel  13: phase 19 Expected: 1365 Received: 1366 Clock phase reset: 1 Passed!
Channel  13: phase 09 Expected:  585 Received:  584 Clock phase reset: 1 Passed!
Channel  13: phase 13 Expected:    0 Received:    0 Clock phase reset: 1 Passed!
Channel 13 passed!
Channel: 14
Channel  14: phase 13 Expected:    0 Received:    0 Clock phase reset: 1 Passed!
Channel  14: phase 03 Expected:  585 Received:  585 Clock phase reset: 1 Passed!
Channel  14: phase 16 Expected: 1365 Received: 1364 Clock phase reset: 1 Passed!
Channel  14: phase 06 Expected: 2457 Received: 2456 Clock phase reset: 1 Passed!
Channel  14: phase 1c Expected: 4095 Received: 4092 Clock phase reset: 1 Passed!
Channel  14: phase 0c Expected: 2457 Received: 2455 Clock phase reset: 1 Passed!
Channel  14: phase 19 Expected: 1365 Received: 1364 Clock phase reset: 1 Passed!
Channel  14: phase 09 Expected:  585 Received:  585 Clock phase reset: 1 Passed!
Channel  14: phase 13 Expected:    0 Received:    0 Clock phase reset: 1 Passed!
Channel 14 passed!
Channel: 15
Channel  15: phase 13 Expected:    0 Received:    0 Clock phase reset: 1 Passed!
Channel  15: phase 03 Expected:  585 Received:  585 Clock phase reset: 1 Passed!
Channel  15: phase 16 Expected: 1365 Received: 1364 Clock phase reset: 1 Passed!
Channel  15: phase 06 Expected: 2457 Received: 2457 Clock phase reset: 1 Passed!
Channel  15: phase 1c Expected: 4095 Received: 4094 Clock phase reset: 1 Passed!
Channel  15: phase 0c Expected: 2457 Received: 2457 Clock phase reset: 1 Passed!
Channel  15: phase 19 Expected: 1365 Received: 1364 Clock phase reset: 1 Passed!
Channel  15: phase 09 Expected:  585 Received:  585 Clock phase reset: 1 Passed!
Channel  15: phase 13 Expected:    0 Received:    0 Clock phase reset: 1 Passed!
Channel 15 passed!
Channel: 16
Channel  16: phase 13 Expected:    0 Received:    0 Clock phase reset: 1 Passed!
Channel  16: phase 03 Expected:  585 Received:  584 Clock phase reset: 1 Passed!
Channel  16: phase 16 Expected: 1365 Received: 1366 Clock phase reset: 1 Passed!
Channel  16: phase 06 Expected: 2457 Received: 2457 Clock phase reset: 1 Passed!
Channel  16: phase 1c Expected: 4095 Received: 4092 Clock phase reset: 1 Passed!
Channel  16: phase 0c Expected: 2457 Received: 2457 Clock phase reset: 1 Passed!
Channel  16: phase 19 Expected: 1365 Received: 1366 Clock phase reset: 1 Passed!
Channel  16: phase 09 Expected:  585 Received:  585 Clock phase reset: 1 Passed!
Channel  16: phase 13 Expected:    0 Received:    0 Clock phase reset: 1 Passed!
Channel 16 passed!
Channel: 17
Channel  17: phase 13 Expected:    0 Received:    0 Clock phase reset: 1 Passed!
Channel  17: phase 03 Expected:  585 Received:  585 Clock phase reset: 1 Passed!
Channel  17: phase 16 Expected: 1365 Received: 1366 Clock phase reset: 1 Passed!
Channel  17: phase 06 Expected: 2457 Received: 2454 Clock phase reset: 1 Passed!
Channel  17: phase 1c Expected: 4095 Received: 4093 Clock phase reset: 1 Passed!
Channel  17: phase 0c Expected: 2457 Received: 2457 Clock phase reset: 1 Passed!
Channel  17: phase 19 Expected: 1365 Received: 1366 Clock phase reset: 1 Passed!
Channel  17: phase 09 Expected:  585 Received:  585 Clock phase reset: 1 Passed!
Channel  17: phase 13 Expected:    0 Received:    0 Clock phase reset: 1 Passed!
Channel 17 passed!
Channel: 18
Channel  18: phase 13 Expected:    0 Received:    0 Clock phase reset: 1 Passed!
Channel  18: phase 03 Expected:  585 Received:  585 Clock phase reset: 1 Passed!
Channel  18: phase 16 Expected: 1365 Received: 1364 Clock phase reset: 1 Passed!
Channel  18: phase 06 Expected: 2457 Received: 2455 Clock phase reset: 1 Passed!
Channel  18: phase 1c Expected: 4095 Received: 4092 Clock phase reset: 1 Passed!
Channel  18: phase 0c Expected: 2457 Received: 2454 Clock phase reset: 1 Passed!
Channel  18: phase 19 Expected: 1365 Received: 1364 Clock phase reset: 1 Passed!
Channel  18: phase 09 Expected:  585 Received:  585 Clock phase reset: 1 Passed!
Channel  18: phase 13 Expected:    0 Received:    0 Clock phase reset: 1 Passed!
Channel 18 passed!
Channel: 19
Channel  19: phase 13 Expected:    0 Received:    0 Clock phase reset: 1 Passed!
Channel  19: phase 03 Expected:  585 Received:  585 Clock phase reset: 1 Passed!
Channel  19: phase 16 Expected: 1365 Received: 1364 Clock phase reset: 1 Passed!
Channel  19: phase 06 Expected: 2457 Received: 2457 Clock phase reset: 1 Passed!
Channel  19: phase 1c Expected: 4095 Received: 4094 Clock phase reset: 1 Passed!
Channel  19: phase 0c Expected: 2457 Received: 2456 Clock phase reset: 1 Passed!
Channel  19: phase 19 Expected: 1365 Received: 1364 Clock phase reset: 1 Passed!
Channel  19: phase 09 Expected:  585 Received:  585 Clock phase reset: 1 Passed!
Channel  19: phase 13 Expected:    0 Received:    0 Clock phase reset: 1 Passed!
Channel 19 passed!
Channel: 20
Channel  20: phase 13 Expected:    0 Received:    0 Clock phase reset: 1 Passed!
Channel  20: phase 03 Expected:  585 Received:  584 Clock phase reset: 1 Passed!
Channel  20: phase 16 Expected: 1365 Received: 1365 Clock phase reset: 1 Passed!
Channel  20: phase 06 Expected: 2457 Received: 2457 Clock phase reset: 1 Passed!
Channel  20: phase 1c Expected: 4095 Received: 4092 Clock phase reset: 1 Passed!
Channel  20: phase 0c Expected: 2457 Received: 2457 Clock phase reset: 1 Passed!
Channel  20: phase 19 Expected: 1365 Received: 1365 Clock phase reset: 1 Passed!
Channel  20: phase 09 Expected:  585 Received:  585 Clock phase reset: 1 Passed!
Channel  20: phase 13 Expected:    0 Received:    0 Clock phase reset: 1 Passed!
Channel 20 passed!
Channel: 21
Channel  21: phase 13 Expected:    0 Received:    0 Clock phase reset: 1 Passed!
Channel  21: phase 03 Expected:  585 Received:  585 Clock phase reset: 1 Passed!
Channel  21: phase 16 Expected: 1365 Received: 1366 Clock phase reset: 1 Passed!
Channel  21: phase 06 Expected: 2457 Received: 2457 Clock phase reset: 1 Passed!
Channel  21: phase 1c Expected: 4095 Received: 4093 Clock phase reset: 1 Passed!
Channel  21: phase 0c Expected: 2457 Received: 2457 Clock phase reset: 1 Passed!
Channel  21: phase 19 Expected: 1365 Received: 1366 Clock phase reset: 1 Passed!
Channel  21: phase 09 Expected:  585 Received:  585 Clock phase reset: 1 Passed!
Channel  21: phase 13 Expected:    0 Received:    0 Clock phase reset: 1 Passed!
Channel 21 passed!
Channel: 22
Channel  22: phase 13 Expected:    0 Received:    0 Clock phase reset: 1 Passed!
Channel  22: phase 03 Expected:  585 Received:  585 Clock phase reset: 1 Passed!
Channel  22: phase 16 Expected: 1365 Received: 1364 Clock phase reset: 1 Passed!
Channel  22: phase 06 Expected: 2457 Received: 2455 Clock phase reset: 1 Passed!
Channel  22: phase 1c Expected: 4095 Received: 4092 Clock phase reset: 1 Passed!
Channel  22: phase 0c Expected: 2457 Received: 2454 Clock phase reset: 1 Passed!
Channel  22: phase 19 Expected: 1365 Received: 1364 Clock phase reset: 1 Passed!
Channel  22: phase 09 Expected:  585 Received:  585 Clock phase reset: 1 Passed!
Channel  22: phase 13 Expected:    0 Received:    0 Clock phase reset: 1 Passed!
Channel 22 passed!
Channel: 23
Channel  23: phase 13 Expected:    0 Received:    0 Clock phase reset: 1 Passed!
Channel  23: phase 03 Expected:  585 Received:  585 Clock phase reset: 1 Passed!
Channel  23: phase 16 Expected: 1365 Received: 1364 Clock phase reset: 1 Passed!
Channel  23: phase 06 Expected: 2457 Received: 2457 Clock phase reset: 1 Passed!
Channel  23: phase 1c Expected: 4095 Received: 4093 Clock phase reset: 1 Passed!
Channel  23: phase 0c Expected: 2457 Received: 2455 Clock phase reset: 1 Passed!
Channel  23: phase 19 Expected: 1365 Received: 1364 Clock phase reset: 1 Passed!
Channel  23: phase 09 Expected:  585 Received:  585 Clock phase reset: 1 Passed!
Channel  23: phase 13 Expected:    0 Received:    0 Clock phase reset: 1 Passed!
Channel 23 passed!
Channel: 24
Channel  24: phase 13 Expected:    0 Received:    0 Clock phase reset: 1 Passed!
Channel  24: phase 03 Expected:  585 Received:    0 Clock phase reset: 1 Failed 1 times!
Channel: 24
Channel  24: phase 13 Expected:    0 Received:    0 Clock phase reset: 1 Passed!
Channel  24: phase 03 Expected:  585 Received:    0 Clock phase reset: 1 Failed 2 times!
Channel: 24
Channel  24: phase 13 Expected:    0 Received:    0 Clock phase reset: 1 Passed!
Channel  24: phase 03 Expected:  585 Received:  585 Clock phase reset: 1 Passed!
Channel  24: phase 16 Expected: 1365 Received: 1364 Clock phase reset: 1 Passed!
Channel  24: phase 06 Expected: 2457 Received: 2457 Clock phase reset: 1 Passed!
Channel  24: phase 1c Expected: 4095 Received: 4094 Clock phase reset: 1 Passed!
Channel  24: phase 0c Expected: 2457 Received: 2456 Clock phase reset: 1 Passed!
Channel  24: phase 19 Expected: 1365 Received: 1364 Clock phase reset: 1 Passed!
Channel  24: phase 09 Expected:  585 Received:  585 Clock phase reset: 1 Passed!
Channel  24: phase 13 Expected:    0 Received:    0 Clock phase reset: 1 Passed!
Channel 24 passed!
Channel: 25
Channel  25: phase 13 Expected:    0 Received:    0 Clock phase reset: 1 Passed!
Channel  25: phase 03 Expected:  585 Received:  584 Clock phase reset: 1 Passed!
Channel  25: phase 16 Expected: 1365 Received: 1365 Clock phase reset: 1 Passed!
Channel  25: phase 06 Expected: 2457 Received: 2457 Clock phase reset: 1 Passed!
Channel  25: phase 1c Expected: 4095 Received: 4092 Clock phase reset: 1 Passed!
Channel  25: phase 0c Expected: 2457 Received: 2457 Clock phase reset: 1 Passed!
Channel  25: phase 19 Expected: 1365 Received: 1365 Clock phase reset: 1 Passed!
Channel  25: phase 09 Expected:  585 Received:  585 Clock phase reset: 1 Passed!
Channel  25: phase 13 Expected:    0 Received:    0 Clock phase reset: 1 Passed!
Channel 25 passed!
Channel: 26
Channel  26: phase 13 Expected:    0 Received:    0 Clock phase reset: 1 Passed!
Channel  26: phase 03 Expected:  585 Received:  585 Clock phase reset: 1 Passed!
Channel  26: phase 16 Expected: 1365 Received: 1366 Clock phase reset: 1 Passed!
Channel  26: phase 06 Expected: 2457 Received: 2457 Clock phase reset: 1 Passed!
Channel  26: phase 1c Expected: 4095 Received: 4093 Clock phase reset: 1 Passed!
Channel  26: phase 0c Expected: 2457 Received: 2457 Clock phase reset: 1 Passed!
Channel  26: phase 19 Expected: 1365 Received: 1366 Clock phase reset: 1 Passed!
Channel  26: phase 09 Expected:  585 Received:  585 Clock phase reset: 1 Passed!
Channel  26: phase 13 Expected:    0 Received:    0 Clock phase reset: 1 Passed!
Channel 26 passed!
Channel: 27
Channel  27: phase 13 Expected:    0 Received:    0 Clock phase reset: 1 Passed!
Channel  27: phase 03 Expected:  585 Received:  585 Clock phase reset: 1 Passed!
Channel  27: phase 16 Expected: 1365 Received: 1364 Clock phase reset: 1 Passed!
Channel  27: phase 06 Expected: 2457 Received: 2455 Clock phase reset: 1 Passed!
Channel  27: phase 1c Expected: 4095 Received: 4092 Clock phase reset: 1 Passed!
Channel  27: phase 0c Expected: 2457 Received: 2454 Clock phase reset: 1 Passed!
Channel  27: phase 19 Expected: 1365 Received: 1364 Clock phase reset: 1 Passed!
Channel  27: phase 09 Expected:  585 Received:  584 Clock phase reset: 1 Passed!
Channel  27: phase 13 Expected:    0 Received:    0 Clock phase reset: 1 Passed!
Channel 27 passed!
Channel: 28
Channel  28: phase 13 Expected:    0 Received:    0 Clock phase reset: 1 Passed!
Channel  28: phase 03 Expected:  585 Received:  585 Clock phase reset: 1 Passed!
Channel  28: phase 16 Expected: 1365 Received: 1364 Clock phase reset: 1 Passed!
Channel  28: phase 06 Expected: 2457 Received: 2456 Clock phase reset: 1 Passed!
Channel  28: phase 1c Expected: 4095 Received: 4093 Clock phase reset: 1 Passed!
Channel  28: phase 0c Expected: 2457 Received: 2455 Clock phase reset: 1 Passed!
Channel  28: phase 19 Expected: 1365 Received: 1364 Clock phase reset: 1 Passed!
Channel  28: phase 09 Expected:  585 Received:  585 Clock phase reset: 1 Passed!
Channel  28: phase 13 Expected:    0 Received:    0 Clock phase reset: 1 Passed!
Channel 28 passed!
Channel: 29
Channel  29: phase 13 Expected:    0 Received:    0 Clock phase reset: 1 Passed!
Channel  29: phase 03 Expected:  585 Received:  585 Clock phase reset: 1 Passed!
Channel  29: phase 16 Expected: 1365 Received: 1364 Clock phase reset: 1 Passed!
Channel  29: phase 06 Expected: 2457 Received: 2457 Clock phase reset: 1 Passed!
Channel  29: phase 1c Expected: 4095 Received: 4092 Clock phase reset: 1 Passed!
Channel  29: phase 0c Expected: 2457 Received: 2456 Clock phase reset: 1 Passed!
Channel  29: phase 19 Expected: 1365 Received: 1364 Clock phase reset: 1 Passed!
Channel  29: phase 09 Expected:  585 Received:  585 Clock phase reset: 1 Passed!
Channel  29: phase 13 Expected:    0 Received:    0 Clock phase reset: 1 Passed!
Channel 29 passed!
Channel: 30
Channel  30: phase 13 Expected:    0 Received:    0 Clock phase reset: 1 Passed!
Channel  30: phase 03 Expected:  585 Received:  585 Clock phase reset: 1 Passed!
Channel  30: phase 16 Expected: 1365 Received: 1364 Clock phase reset: 1 Passed!
Channel  30: phase 06 Expected: 2457 Received: 2457 Clock phase reset: 1 Passed!
Channel  30: phase 1c Expected: 4095 Received: 4093 Clock phase reset: 1 Passed!
Channel  30: phase 0c Expected: 2457 Received: 2456 Clock phase reset: 1 Passed!
Channel  30: phase 19 Expected: 1365 Received: 1364 Clock phase reset: 1 Passed!
Channel  30: phase 09 Expected:  585 Received:  585 Clock phase reset: 1 Passed!
Channel  30: phase 13 Expected:    0 Received:    0 Clock phase reset: 1 Passed!
Channel 30 passed!
Channel: 31
Channel  31: phase 13 Expected:    0 Received:    0 Clock phase reset: 1 Passed!
Channel  31: phase 03 Expected:  585 Received:  585 Clock phase reset: 1 Passed!
Channel  31: phase 16 Expected: 1365 Received: 1365 Clock phase reset: 1 Passed!
Channel  31: phase 06 Expected: 2457 Received: 2457 Clock phase reset: 1 Passed!
Channel  31: phase 1c Expected: 4095 Received: 4092 Clock phase reset: 1 Passed!
Channel  31: phase 0c Expected: 2457 Received: 2457 Clock phase reset: 1 Passed!
Channel  31: phase 19 Expected: 1365 Received: 1365 Clock phase reset: 1 Passed!
Channel  31: phase 09 Expected:  585 Received:  585 Clock phase reset: 1 Passed!
Channel  31: phase 13 Expected:    0 Received:    0 Clock phase reset: 1 Passed!
Channel 31 passed!
Channel: 32
Channel  32: phase 13 Expected:    0 Received:    0 Clock phase reset: 1 Passed!
Channel  32: phase 03 Expected:  585 Received:  585 Clock phase reset: 1 Passed!
Channel  32: phase 16 Expected: 1365 Received: 1366 Clock phase reset: 1 Passed!
Channel  32: phase 06 Expected: 2457 Received: 2457 Clock phase reset: 1 Passed!
Channel  32: phase 1c Expected: 4095 Received: 4093 Clock phase reset: 1 Passed!
Channel  32: phase 0c Expected: 2457 Received: 2457 Clock phase reset: 1 Passed!
Channel  32: phase 19 Expected: 1365 Received: 1366 Clock phase reset: 1 Passed!
Channel  32: phase 09 Expected:  585 Received:  585 Clock phase reset: 1 Passed!
Channel  32: phase 13 Expected:    0 Received:    0 Clock phase reset: 1 Passed!
Channel 32 passed!
Channel: 33
Channel  33: phase 13 Expected:    0 Received:    0 Clock phase reset: 1 Passed!
Channel  33: phase 03 Expected:  585 Received:  585 Clock phase reset: 1 Passed!
Channel  33: phase 16 Expected: 1365 Received: 1366 Clock phase reset: 1 Passed!
Channel  33: phase 06 Expected: 2457 Received: 2454 Clock phase reset: 1 Passed!
Channel  33: phase 1c Expected: 4095 Received: 4094 Clock phase reset: 1 Passed!
Channel  33: phase 0c Expected: 2457 Received: 2457 Clock phase reset: 1 Passed!
Channel  33: phase 19 Expected: 1365 Received: 1364 Clock phase reset: 1 Passed!
Channel  33: phase 09 Expected:  585 Received:  585 Clock phase reset: 1 Passed!
Channel  33: phase 13 Expected:    0 Received:    0 Clock phase reset: 1 Passed!
Channel 33 passed!
Channel: 34
Channel  34: phase 13 Expected:    0 Received:    0 Clock phase reset: 1 Passed!
Channel  34: phase 03 Expected:  585 Received:  585 Clock phase reset: 1 Passed!
Channel  34: phase 16 Expected: 1365 Received: 1364 Clock phase reset: 1 Passed!
Channel  34: phase 06 Expected: 2457 Received: 2456 Clock phase reset: 1 Passed!
Channel  34: phase 1c Expected: 4095 Received: 4092 Clock phase reset: 1 Passed!
Channel  34: phase 0c Expected: 2457 Received: 2455 Clock phase reset: 1 Passed!
Channel  34: phase 19 Expected: 1365 Received: 1364 Clock phase reset: 1 Passed!
Channel  34: phase 09 Expected:  585 Received:  585 Clock phase reset: 1 Passed!
Channel  34: phase 13 Expected:    0 Received:    0 Clock phase reset: 1 Passed!
Channel 34 passed!
Channel: 35
Channel  35: phase 13 Expected:    0 Received:    0 Clock phase reset: 1 Passed!
Channel  35: phase 03 Expected:  585 Received:  585 Clock phase reset: 1 Passed!
Channel  35: phase 16 Expected: 1365 Received: 1364 Clock phase reset: 1 Passed!
Channel  35: phase 06 Expected: 2457 Received: 2457 Clock phase reset: 1 Passed!
Channel  35: phase 1c Expected: 4095 Received: 4094 Clock phase reset: 1 Passed!
Channel  35: phase 0c Expected: 2457 Received: 2457 Clock phase reset: 1 Passed!
Channel  35: phase 19 Expected: 1365 Received: 1364 Clock phase reset: 1 Passed!
Channel  35: phase 09 Expected:  585 Received:  585 Clock phase reset: 1 Passed!
Channel  35: phase 13 Expected:    0 Received:    0 Clock phase reset: 1 Passed!
Channel 35 passed!
Channel: 36
Channel  36: phase 13 Expected:    0 Received:    0 Clock phase reset: 1 Passed!
Channel  36: phase 03 Expected:  585 Received:  585 Clock phase reset: 1 Passed!
Channel  36: phase 16 Expected: 1365 Received: 1365 Clock phase reset: 1 Passed!
Channel  36: phase 06 Expected: 2457 Received: 2457 Clock phase reset: 1 Passed!
Channel  36: phase 1c Expected: 4095 Received: 4092 Clock phase reset: 1 Passed!
Channel  36: phase 0c Expected: 2457 Received: 2457 Clock phase reset: 1 Passed!
Channel  36: phase 19 Expected: 1365 Received: 1365 Clock phase reset: 1 Passed!
Channel  36: phase 09 Expected:  585 Received:  585 Clock phase reset: 1 Passed!
Channel  36: phase 13 Expected:    0 Received:    0 Clock phase reset: 1 Passed!
Channel 36 passed!
Channel: 37
Channel  37: phase 13 Expected:    0 Received:  459 Clock phase reset: 1 Failed 1 times!
Channel: 37
Channel  37: phase 13 Expected:    0 Received:    0 Clock phase reset: 1 Passed!
Channel  37: phase 03 Expected:  585 Received:    0 Clock phase reset: 1 Failed 2 times!
Channel: 37
Channel  37: phase 13 Expected:    0 Received:    0 Clock phase reset: 1 Passed!
Channel  37: phase 03 Expected:  585 Received:    0 Clock phase reset: 1 Failed 3 times!
Channel: 37
Channel  37: phase 13 Expected:    0 Received:    0 Clock phase reset: 1 Passed!
Channel  37: phase 03 Expected:  585 Received:  585 Clock phase reset: 1 Passed!
Channel  37: phase 16 Expected: 1365 Received: 1366 Clock phase reset: 1 Passed!
Channel  37: phase 06 Expected: 2457 Received: 2454 Clock phase reset: 1 Passed!
Channel  37: phase 1c Expected: 4095 Received: 4094 Clock phase reset: 1 Passed!
Channel  37: phase 0c Expected: 2457 Received: 2457 Clock phase reset: 1 Passed!
Channel  37: phase 19 Expected: 1365 Received: 1366 Clock phase reset: 1 Passed!
Channel  37: phase 09 Expected:  585 Received:  585 Clock phase reset: 1 Passed!
Channel  37: phase 13 Expected:    0 Received:    0 Clock phase reset: 1 Passed!
Channel 37 passed!
Channel: 38
Channel  38: phase 13 Expected:    0 Received:    0 Clock phase reset: 1 Passed!
Channel  38: phase 03 Expected:  585 Received:  585 Clock phase reset: 1 Passed!
Channel  38: phase 16 Expected: 1365 Received: 1364 Clock phase reset: 1 Passed!
Channel  38: phase 06 Expected: 2457 Received: 2456 Clock phase reset: 1 Passed!
Channel  38: phase 1c Expected: 4095 Received: 4092 Clock phase reset: 1 Passed!
Channel  38: phase 0c Expected: 2457 Received: 2454 Clock phase reset: 1 Passed!
Channel  38: phase 19 Expected: 1365 Received: 1364 Clock phase reset: 1 Passed!
Channel  38: phase 09 Expected:  585 Received:  585 Clock phase reset: 1 Passed!
Channel  38: phase 13 Expected:    0 Received:    0 Clock phase reset: 1 Passed!
Channel 38 passed!
Channel: 39
Channel  39: phase 13 Expected:    0 Received:    0 Clock phase reset: 1 Passed!
Channel  39: phase 03 Expected:  585 Received:  585 Clock phase reset: 1 Passed!
Channel  39: phase 16 Expected: 1365 Received: 1364 Clock phase reset: 1 Passed!
Channel  39: phase 06 Expected: 2457 Received: 2457 Clock phase reset: 1 Passed!
Channel  39: phase 1c Expected: 4095 Received: 4094 Clock phase reset: 1 Passed!
Channel  39: phase 0c Expected: 2457 Received: 2456 Clock phase reset: 1 Passed!
Channel  39: phase 19 Expected: 1365 Received: 1364 Clock phase reset: 1 Passed!
Channel  39: phase 09 Expected:  585 Received:  585 Clock phase reset: 1 Passed!
Channel  39: phase 13 Expected:    0 Received:    0 Clock phase reset: 1 Passed!
Channel 39 passed!
Channel: 40
Channel  40: phase 13 Expected:    0 Received:    0 Clock phase reset: 1 Passed!
Channel  40: phase 03 Expected:  585 Received:  584 Clock phase reset: 1 Passed!
Channel  40: phase 16 Expected: 1365 Received: 1365 Clock phase reset: 1 Passed!
Channel  40: phase 06 Expected: 2457 Received: 2457 Clock phase reset: 1 Passed!
Channel  40: phase 1c Expected: 4095 Received: 4092 Clock phase reset: 1 Passed!
Channel  40: phase 0c Expected: 2457 Received: 2457 Clock phase reset: 1 Passed!
Channel  40: phase 19 Expected: 1365 Received: 1365 Clock phase reset: 1 Passed!
Channel  40: phase 09 Expected:  585 Received:  585 Clock phase reset: 1 Passed!
Channel  40: phase 13 Expected:    0 Received:    0 Clock phase reset: 1 Passed!
Channel 40 passed!
Channel: 41
Channel  41: phase 13 Expected:    0 Received:    0 Clock phase reset: 1 Passed!
Channel  41: phase 03 Expected:  585 Received:  585 Clock phase reset: 1 Passed!
Channel  41: phase 16 Expected: 1365 Received: 1366 Clock phase reset: 1 Passed!
Channel  41: phase 06 Expected: 2457 Received: 2457 Clock phase reset: 1 Passed!
Channel  41: phase 1c Expected: 4095 Received: 4093 Clock phase reset: 1 Passed!
Channel  41: phase 0c Expected: 2457 Received: 2457 Clock phase reset: 1 Passed!
Channel  41: phase 19 Expected: 1365 Received: 1366 Clock phase reset: 1 Passed!
Channel  41: phase 09 Expected:  585 Received:  585 Clock phase reset: 1 Passed!
Channel  41: phase 13 Expected:    0 Received:    0 Clock phase reset: 1 Passed!
Channel 41 passed!
Channel: 42
Channel  42: phase 13 Expected:    0 Received:    0 Clock phase reset: 1 Passed!
Channel  42: phase 03 Expected:  585 Received:  585 Clock phase reset: 1 Passed!
Channel  42: phase 16 Expected: 1365 Received: 1366 Clock phase reset: 1 Passed!
Channel  42: phase 06 Expected: 2457 Received: 2454 Clock phase reset: 1 Passed!
Channel  42: phase 1c Expected: 4095 Received: 4092 Clock phase reset: 1 Passed!
Channel  42: phase 0c Expected: 2457 Received: 2454 Clock phase reset: 1 Passed!
Channel  42: phase 19 Expected: 1365 Received: 1364 Clock phase reset: 1 Passed!
Channel  42: phase 09 Expected:  585 Received:  584 Clock phase reset: 1 Passed!
Channel  42: phase 13 Expected:    0 Received:    0 Clock phase reset: 1 Passed!
Channel 42 passed!
Channel: 43
Channel  43: phase 13 Expected:    0 Received:    0 Clock phase reset: 1 Passed!
Channel  43: phase 03 Expected:  585 Received:  585 Clock phase reset: 1 Passed!
Channel  43: phase 16 Expected: 1365 Received: 1364 Clock phase reset: 1 Passed!
Channel  43: phase 06 Expected: 2457 Received: 2457 Clock phase reset: 1 Passed!
Channel  43: phase 1c Expected: 4095 Received: 4093 Clock phase reset: 1 Passed!
Channel  43: phase 0c Expected: 2457 Received: 2455 Clock phase reset: 1 Passed!
Channel  43: phase 19 Expected: 1365 Received: 1364 Clock phase reset: 1 Passed!
Channel  43: phase 09 Expected:  585 Received:  585 Clock phase reset: 1 Passed!
Channel  43: phase 13 Expected:    0 Received:    0 Clock phase reset: 1 Passed!
Channel 43 passed!
Channel: 44
Channel  44: phase 13 Expected:    0 Received:    0 Clock phase reset: 1 Passed!
Channel  44: phase 03 Expected:  585 Received:  585 Clock phase reset: 1 Passed!
Channel  44: phase 16 Expected: 1365 Received: 1364 Clock phase reset: 1 Passed!
Channel  44: phase 06 Expected: 2457 Received: 2457 Clock phase reset: 1 Passed!
Channel  44: phase 1c Expected: 4095 Received: 4093 Clock phase reset: 1 Passed!
Channel  44: phase 0c Expected: 2457 Received: 2456 Clock phase reset: 1 Passed!
Channel  44: phase 19 Expected: 1365 Received: 1364 Clock phase reset: 1 Passed!
Channel  44: phase 09 Expected:  585 Received:  585 Clock phase reset: 1 Passed!
Channel  44: phase 13 Expected:    0 Received:    0 Clock phase reset: 1 Passed!
Channel 44 passed!
Channel: 45
Channel  45: phase 13 Expected:    0 Received:    0 Clock phase reset: 1 Passed!
Channel  45: phase 03 Expected:  585 Received:  585 Clock phase reset: 1 Passed!
Channel  45: phase 16 Expected: 1365 Received: 1364 Clock phase reset: 1 Passed!
Channel  45: phase 06 Expected: 2457 Received: 2456 Clock phase reset: 1 Passed!
Channel  45: phase 1c Expected: 4095 Received: 4092 Clock phase reset: 1 Passed!
Channel  45: phase 0c Expected: 2457 Received: 2455 Clock phase reset: 1 Passed!
Channel  45: phase 19 Expected: 1365 Received: 1364 Clock phase reset: 1 Passed!
Channel  45: phase 09 Expected:  585 Received:  585 Clock phase reset: 1 Passed!
Channel  45: phase 13 Expected:    0 Received:    0 Clock phase reset: 1 Passed!
Channel 45 passed!
Channel: 46
Channel  46: phase 13 Expected:    0 Received:    0 Clock phase reset: 1 Passed!
Channel  46: phase 03 Expected:  585 Received:  585 Clock phase reset: 1 Passed!
Channel  46: phase 16 Expected: 1365 Received: 1364 Clock phase reset: 1 Passed!
Channel  46: phase 06 Expected: 2457 Received: 2457 Clock phase reset: 1 Passed!
Channel  46: phase 1c Expected: 4095 Received: 4094 Clock phase reset: 1 Passed!
Channel  46: phase 0c Expected: 2457 Received: 2457 Clock phase reset: 1 Passed!
Channel  46: phase 19 Expected: 1365 Received: 1364 Clock phase reset: 1 Passed!
Channel  46: phase 09 Expected:  585 Received:  585 Clock phase reset: 1 Passed!
Channel  46: phase 13 Expected:    0 Received:    0 Clock phase reset: 1 Passed!
Channel 46 passed!
Channel: 47
Channel  47: phase 13 Expected:    0 Received:    0 Clock phase reset: 1 Passed!
Channel  47: phase 03 Expected:  585 Received:  584 Clock phase reset: 1 Passed!
Channel  47: phase 16 Expected: 1365 Received: 1365 Clock phase reset: 1 Passed!
Channel  47: phase 06 Expected: 2457 Received: 2457 Clock phase reset: 1 Passed!
Channel  47: phase 1c Expected: 4095 Received: 4092 Clock phase reset: 1 Passed!
Channel  47: phase 0c Expected: 2457 Received: 2457 Clock phase reset: 1 Passed!
Channel  47: phase 19 Expected: 1365 Received: 1366 Clock phase reset: 1 Passed!
Channel  47: phase 09 Expected:  585 Received:  585 Clock phase reset: 1 Passed!
Channel  47: phase 13 Expected:    0 Received:    0 Clock phase reset: 1 Passed!
Channel 47 passed!
Channel: 48
Channel  48: phase 13 Expected:    0 Received:    0 Clock phase reset: 1 Passed!
Channel  48: phase 03 Expected:  585 Received:  583 Clock phase reset: 1 Passed!
Channel  48: phase 16 Expected: 1365 Received: 1366 Clock phase reset: 1 Passed!
Channel  48: phase 06 Expected: 2457 Received: 2450 Clock phase reset: 1 Passed!
Channel  48: phase 1c Expected: 4095 Received: 4094 Clock phase reset: 1 Passed!
Channel  48: phase 0c Expected: 2457 Received: 2459 Clock phase reset: 1 Passed!
Channel  48: phase 19 Expected: 1365 Received: 1366 Clock phase reset: 1 Passed!
Channel  48: phase 09 Expected:  585 Received:  587 Clock phase reset: 1 Passed!
Channel  48: phase 13 Expected:    0 Received:    0 Clock phase reset: 1 Passed!
Channel 48 passed!
Channel: 49
Channel  49: phase 13 Expected:    0 Received:    0 Clock phase reset: 1 Passed!
Channel  49: phase 03 Expected:  585 Received:  574 Clock phase reset: 1 Failed 1 times!
Channel: 49
Channel  49: phase 13 Expected:    0 Received:    0 Clock phase reset: 1 Passed!
Channel  49: phase 03 Expected:  585 Received:    0 Clock phase reset: 1 Failed 2 times!
Channel: 49
Channel  49: phase 13 Expected:    0 Received:    0 Clock phase reset: 1 Passed!
Channel  49: phase 03 Expected:  585 Received:    0 Clock phase reset: 1 Failed 3 times!
Channel: 49
Channel  49: phase 13 Expected:    0 Received:    0 Clock phase reset: 1 Passed!
Channel  49: phase 03 Expected:  585 Received:  585 Clock phase reset: 1 Passed!
Channel  49: phase 16 Expected: 1365 Received: 1366 Clock phase reset: 1 Passed!
Channel  49: phase 06 Expected: 2457 Received: 2457 Clock phase reset: 1 Passed!
Channel  49: phase 1c Expected: 4095 Received: 4092 Clock phase reset: 1 Passed!
Channel  49: phase 0c Expected: 2457 Received: 2457 Clock phase reset: 1 Passed!
Channel  49: phase 19 Expected: 1365 Received: 1366 Clock phase reset: 1 Passed!
Channel  49: phase 09 Expected:  585 Received:  585 Clock phase reset: 1 Passed!
Channel  49: phase 13 Expected:    0 Received:    0 Clock phase reset: 1 Passed!
Channel 49 passed!
Channel: 50
Channel  50: phase 13 Expected:    0 Received:    0 Clock phase reset: 1 Passed!
Channel  50: phase 03 Expected:  585 Received:  585 Clock phase reset: 1 Passed!
Channel  50: phase 16 Expected: 1365 Received: 1366 Clock phase reset: 1 Passed!
Channel  50: phase 06 Expected: 2457 Received: 2454 Clock phase reset: 1 Passed!
Channel  50: phase 1c Expected: 4095 Received: 4094 Clock phase reset: 1 Passed!
Channel  50: phase 0c Expected: 2457 Received: 2457 Clock phase reset: 1 Passed!
Channel  50: phase 19 Expected: 1365 Received: 1366 Clock phase reset: 1 Passed!
Channel  50: phase 09 Expected:  585 Received:  585 Clock phase reset: 1 Passed!
Channel  50: phase 13 Expected:    0 Received:    0 Clock phase reset: 1 Passed!
Channel 50 passed!
Channel: 51
Channel  51: phase 13 Expected:    0 Received:    0 Clock phase reset: 1 Passed!
Channel  51: phase 03 Expected:  585 Received:  585 Clock phase reset: 1 Passed!
Channel  51: phase 16 Expected: 1365 Received: 1364 Clock phase reset: 1 Passed!
Channel  51: phase 06 Expected: 2457 Received: 2456 Clock phase reset: 1 Passed!
Channel  51: phase 1c Expected: 4095 Received: 4092 Clock phase reset: 1 Passed!
Channel  51: phase 0c Expected: 2457 Received: 2455 Clock phase reset: 1 Passed!
Channel  51: phase 19 Expected: 1365 Received: 1364 Clock phase reset: 1 Passed!
Channel  51: phase 09 Expected:  585 Received:  585 Clock phase reset: 1 Passed!
Channel  51: phase 13 Expected:    0 Received:    0 Clock phase reset: 1 Passed!
Channel 51 passed!
Channel: 52
Channel  52: phase 13 Expected:    0 Received:    0 Clock phase reset: 1 Passed!
Channel  52: phase 03 Expected:  585 Received:  585 Clock phase reset: 1 Passed!
Channel  52: phase 16 Expected: 1365 Received: 1364 Clock phase reset: 1 Passed!
Channel  52: phase 06 Expected: 2457 Received: 2457 Clock phase reset: 1 Passed!
Channel  52: phase 1c Expected: 4095 Received: 4094 Clock phase reset: 1 Passed!
Channel  52: phase 0c Expected: 2457 Received: 2456 Clock phase reset: 1 Passed!
Channel  52: phase 19 Expected: 1365 Received: 1364 Clock phase reset: 1 Passed!
Channel  52: phase 09 Expected:  585 Received:  585 Clock phase reset: 1 Passed!
Channel  52: phase 13 Expected:    0 Received:    0 Clock phase reset: 1 Passed!
Channel 52 passed!
Channel: 53
Channel  53: phase 13 Expected:    0 Received:    0 Clock phase reset: 1 Passed!
Channel  53: phase 03 Expected:  585 Received:  584 Clock phase reset: 1 Passed!
Channel  53: phase 16 Expected: 1365 Received: 1365 Clock phase reset: 1 Passed!
Channel  53: phase 06 Expected: 2457 Received: 2457 Clock phase reset: 1 Passed!
Channel  53: phase 1c Expected: 4095 Received: 4092 Clock phase reset: 1 Passed!
Channel  53: phase 0c Expected: 2457 Received: 2457 Clock phase reset: 1 Passed!
Channel  53: phase 19 Expected: 1365 Received: 1366 Clock phase reset: 1 Passed!
Channel  53: phase 09 Expected:  585 Received:  585 Clock phase reset: 1 Passed!
Channel  53: phase 13 Expected:    0 Received:    0 Clock phase reset: 1 Passed!
Channel 53 passed!
Channel: 54
Channel  54: phase 13 Expected:    0 Received:    0 Clock phase reset: 1 Passed!
Channel  54: phase 03 Expected:  585 Received:  585 Clock phase reset: 1 Passed!
Channel  54: phase 16 Expected: 1365 Received: 1366 Clock phase reset: 1 Passed!
Channel  54: phase 06 Expected: 2457 Received: 2457 Clock phase reset: 1 Passed!
Channel  54: phase 1c Expected: 4095 Received: 4094 Clock phase reset: 1 Passed!
Channel  54: phase 0c Expected: 2457 Received: 2457 Clock phase reset: 1 Passed!
Channel  54: phase 19 Expected: 1365 Received: 1366 Clock phase reset: 1 Passed!
Channel  54: phase 09 Expected:  585 Received:  585 Clock phase reset: 1 Passed!
Channel  54: phase 13 Expected:    0 Received:    0 Clock phase reset: 1 Passed!
Channel 54 passed!
Channel: 55
Channel  55: phase 13 Expected:    0 Received:    0 Clock phase reset: 1 Passed!
Channel  55: phase 03 Expected:  585 Received:  585 Clock phase reset: 1 Passed!
Channel  55: phase 16 Expected: 1365 Received: 1364 Clock phase reset: 1 Passed!
Channel  55: phase 06 Expected: 2457 Received: 2455 Clock phase reset: 1 Passed!
Channel  55: phase 1c Expected: 4095 Received: 4092 Clock phase reset: 1 Passed!
Channel  55: phase 0c Expected: 2457 Received: 2454 Clock phase reset: 1 Passed!
Channel  55: phase 19 Expected: 1365 Received: 1364 Clock phase reset: 1 Passed!
Channel  55: phase 09 Expected:  585 Received:  584 Clock phase reset: 1 Passed!
Channel  55: phase 13 Expected:    0 Received:    0 Clock phase reset: 1 Passed!
Channel 55 passed!
Channel: 56
Channel  56: phase 13 Expected:    0 Received:    0 Clock phase reset: 1 Passed!
Channel  56: phase 03 Expected:  585 Received:  585 Clock phase reset: 1 Passed!
Channel  56: phase 16 Expected: 1365 Received: 1364 Clock phase reset: 1 Passed!
Channel  56: phase 06 Expected: 2457 Received: 2457 Clock phase reset: 1 Passed!
Channel  56: phase 1c Expected: 4095 Received: 4093 Clock phase reset: 1 Passed!
Channel  56: phase 0c Expected: 2457 Received: 2456 Clock phase reset: 1 Passed!
Channel  56: phase 19 Expected: 1365 Received: 1364 Clock phase reset: 1 Passed!
Channel  56: phase 09 Expected:  585 Received:  585 Clock phase reset: 1 Passed!
Channel  56: phase 13 Expected:    0 Received:    0 Clock phase reset: 1 Passed!
Channel 56 passed!
Channel: 57
Channel  57: phase 13 Expected:    0 Received:    0 Clock phase reset: 1 Passed!
Channel  57: phase 03 Expected:  585 Received:  584 Clock phase reset: 1 Passed!
Channel  57: phase 16 Expected: 1365 Received: 1365 Clock phase reset: 1 Passed!
Channel  57: phase 06 Expected: 2457 Received: 2457 Clock phase reset: 1 Passed!
Channel  57: phase 1c Expected: 4095 Received: 4092 Clock phase reset: 1 Passed!
Channel  57: phase 0c Expected: 2457 Received: 2457 Clock phase reset: 1 Passed!
Channel  57: phase 19 Expected: 1365 Received: 1365 Clock phase reset: 1 Passed!
Channel  57: phase 09 Expected:  585 Received:  585 Clock phase reset: 1 Passed!
Channel  57: phase 13 Expected:    0 Received:    0 Clock phase reset: 1 Passed!
Channel 57 passed!
Channel: 58
Channel  58: phase 13 Expected:    0 Received:    0 Clock phase reset: 1 Passed!
Channel  58: phase 03 Expected:  585 Received:  585 Clock phase reset: 1 Passed!
Channel  58: phase 16 Expected: 1365 Received: 1366 Clock phase reset: 1 Passed!
Channel  58: phase 06 Expected: 2457 Received: 2457 Clock phase reset: 1 Passed!
Channel  58: phase 1c Expected: 4095 Received: 4093 Clock phase reset: 1 Passed!
Channel  58: phase 0c Expected: 2457 Received: 2457 Clock phase reset: 1 Passed!
Channel  58: phase 19 Expected: 1365 Received: 1366 Clock phase reset: 1 Passed!
Channel  58: phase 09 Expected:  585 Received:  585 Clock phase reset: 1 Passed!
Channel  58: phase 13 Expected:    0 Received:    0 Clock phase reset: 1 Passed!
Channel 58 passed!
Channel: 59
Channel  59: phase 13 Expected:    0 Received:   33 Clock phase reset: 1 Failed 1 times!
Channel: 59
Channel  59: phase 13 Expected:    0 Received:    0 Clock phase reset: 1 Passed!
Channel  59: phase 03 Expected:  585 Received:    0 Clock phase reset: 1 Failed 2 times!
Channel: 59
Channel  59: phase 13 Expected:    0 Received:    0 Clock phase reset: 1 Passed!
Channel  59: phase 03 Expected:  585 Received:    0 Clock phase reset: 1 Failed 3 times!
Channel: 59
Channel  59: phase 13 Expected:    0 Received:    0 Clock phase reset: 1 Passed!
Channel  59: phase 03 Expected:  585 Received:  585 Clock phase reset: 1 Passed!
Channel  59: phase 16 Expected: 1365 Received: 1364 Clock phase reset: 1 Passed!
Channel  59: phase 06 Expected: 2457 Received: 2456 Clock phase reset: 1 Passed!
Channel  59: phase 1c Expected: 4095 Received: 4092 Clock phase reset: 1 Passed!
Channel  59: phase 0c Expected: 2457 Received: 2455 Clock phase reset: 1 Passed!
Channel  59: phase 19 Expected: 1365 Received: 1364 Clock phase reset: 1 Passed!
Channel  59: phase 09 Expected:  585 Received:  585 Clock phase reset: 1 Passed!
Channel  59: phase 13 Expected:    0 Received:    0 Clock phase reset: 1 Passed!
Channel 59 passed!
Channel: 60
Channel  60: phase 13 Expected:    0 Received:    0 Clock phase reset: 1 Passed!
Channel  60: phase 03 Expected:  585 Received:  585 Clock phase reset: 1 Passed!
Channel  60: phase 16 Expected: 1365 Received: 1366 Clock phase reset: 1 Passed!
Channel  60: phase 06 Expected: 2457 Received: 2455 Clock phase reset: 1 Passed!
Channel  60: phase 1c Expected: 4095 Received: 4092 Clock phase reset: 1 Passed!
Channel  60: phase 0c Expected: 2457 Received: 2457 Clock phase reset: 1 Passed!
Channel  60: phase 19 Expected: 1365 Received: 1364 Clock phase reset: 1 Passed!
Channel  60: phase 09 Expected:  585 Received:  584 Clock phase reset: 1 Passed!
Channel  60: phase 13 Expected:    0 Received:    0 Clock phase reset: 1 Passed!
Channel 60 passed!
Channel: 61
Channel  61: phase 13 Expected:    0 Received:    0 Clock phase reset: 1 Passed!
Channel  61: phase 03 Expected:  585 Received:  585 Clock phase reset: 1 Passed!
Channel  61: phase 16 Expected: 1365 Received: 1364 Clock phase reset: 1 Passed!
Channel  61: phase 06 Expected: 2457 Received: 2457 Clock phase reset: 1 Passed!
Channel  61: phase 1c Expected: 4095 Received: 4093 Clock phase reset: 1 Passed!
Channel  61: phase 0c Expected: 2457 Received: 2456 Clock phase reset: 1 Passed!
Channel  61: phase 19 Expected: 1365 Received: 1364 Clock phase reset: 1 Passed!
Channel  61: phase 09 Expected:  585 Received:  585 Clock phase reset: 1 Passed!
Channel  61: phase 13 Expected:    0 Received:    0 Clock phase reset: 1 Passed!
Channel 61 passed!
Channel: 62
Channel  62: phase 13 Expected:    0 Received:    0 Clock phase reset: 1 Passed!
Channel  62: phase 03 Expected:  585 Received:  585 Clock phase reset: 1 Passed!
Channel  62: phase 16 Expected: 1365 Received: 1365 Clock phase reset: 1 Passed!
Channel  62: phase 06 Expected: 2457 Received: 2457 Clock phase reset: 1 Passed!
Channel  62: phase 1c Expected: 4095 Received: 4092 Clock phase reset: 1 Passed!
Channel  62: phase 0c Expected: 2457 Received: 2457 Clock phase reset: 1 Passed!
Channel  62: phase 19 Expected: 1365 Received: 1365 Clock phase reset: 1 Passed!
Channel  62: phase 09 Expected:  585 Received:  585 Clock phase reset: 1 Passed!
Channel  62: phase 13 Expected:    0 Received:    0 Clock phase reset: 1 Passed!
Channel 62 passed!
Channel: 63
Channel  63: phase 13 Expected:    0 Received:    0 Clock phase reset: 1 Passed!
Channel  63: phase 03 Expected:  585 Received:  585 Clock phase reset: 1 Passed!
Channel  63: phase 16 Expected: 1365 Received: 1366 Clock phase reset: 1 Passed!
Channel  63: phase 06 Expected: 2457 Received: 2457 Clock phase reset: 1 Passed!
Channel  63: phase 1c Expected: 4095 Received: 4093 Clock phase reset: 1 Passed!
Channel  63: phase 0c Expected: 2457 Received: 2457 Clock phase reset: 1 Passed!
Channel  63: phase 19 Expected: 1365 Received: 1366 Clock phase reset: 1 Passed!
Channel  63: phase 09 Expected:  585 Received:  585 Clock phase reset: 1 Passed!
Channel  63: phase 13 Expected:    0 Received:    0 Clock phase reset: 1 Passed!
Channel 63 passed!
Channel: 64
Channel  64: phase 13 Expected:    0 Received:    0 Clock phase reset: 1 Passed!
Channel  64: phase 03 Expected:  585 Received:  585 Clock phase reset: 1 Passed!
Channel  64: phase 16 Expected: 1365 Received: 1366 Clock phase reset: 1 Passed!
Channel  64: phase 06 Expected: 2457 Received: 2454 Clock phase reset: 1 Passed!
Channel  64: phase 1c Expected: 4095 Received: 4092 Clock phase reset: 1 Passed!
Channel  64: phase 0c Expected: 2457 Received: 2457 Clock phase reset: 1 Passed!
Channel  64: phase 19 Expected: 1365 Received: 1366 Clock phase reset: 1 Passed!
Channel  64: phase 09 Expected:  585 Received:  584 Clock phase reset: 1 Passed!
Channel  64: phase 13 Expected:    0 Received:    0 Clock phase reset: 1 Passed!
Channel 64 passed!
Channel: 65
Channel  65: phase 13 Expected:    0 Received:    0 Clock phase reset: 1 Passed!
Channel  65: phase 03 Expected:  585 Received:  585 Clock phase reset: 1 Passed!
Channel  65: phase 16 Expected: 1365 Received: 1366 Clock phase reset: 1 Passed!
Channel  65: phase 06 Expected: 2457 Received: 2457 Clock phase reset: 1 Passed!
Channel  65: phase 1c Expected: 4095 Received: 4092 Clock phase reset: 1 Passed!
Channel  65: phase 0c Expected: 2457 Received: 2457 Clock phase reset: 1 Passed!
Channel  65: phase 19 Expected: 1365 Received: 1365 Clock phase reset: 1 Passed!
Channel  65: phase 09 Expected:  585 Received:  585 Clock phase reset: 1 Passed!
Channel  65: phase 13 Expected:    0 Received:    0 Clock phase reset: 1 Passed!
Channel 65 passed!
Channel: 66
Channel  66: phase 13 Expected:    0 Received:    0 Clock phase reset: 1 Passed!
Channel  66: phase 03 Expected:  585 Received:  585 Clock phase reset: 1 Passed!
Channel  66: phase 16 Expected: 1365 Received: 1366 Clock phase reset: 1 Passed!
Channel  66: phase 06 Expected: 2457 Received: 2454 Clock phase reset: 1 Passed!
Channel  66: phase 1c Expected: 4095 Received: 4094 Clock phase reset: 1 Passed!
Channel  66: phase 0c Expected: 2457 Received: 2457 Clock phase reset: 1 Passed!
Channel  66: phase 19 Expected: 1365 Received: 1366 Clock phase reset: 1 Passed!
Channel  66: phase 09 Expected:  585 Received:  585 Clock phase reset: 1 Passed!
Channel  66: phase 13 Expected:    0 Received:    0 Clock phase reset: 1 Passed!
Channel 66 passed!
Channel: 67
Channel  67: phase 13 Expected:    0 Received:    0 Clock phase reset: 1 Passed!
Channel  67: phase 03 Expected:  585 Received:  585 Clock phase reset: 1 Passed!
Channel  67: phase 16 Expected: 1365 Received: 1366 Clock phase reset: 1 Passed!
Channel  67: phase 06 Expected: 2457 Received: 2456 Clock phase reset: 1 Passed!
Channel  67: phase 1c Expected: 4095 Received: 4092 Clock phase reset: 1 Passed!
Channel  67: phase 0c Expected: 2457 Received: 2455 Clock phase reset: 1 Passed!
Channel  67: phase 19 Expected: 1365 Received: 1364 Clock phase reset: 1 Passed!
Channel  67: phase 09 Expected:  585 Received:  585 Clock phase reset: 1 Passed!
Channel  67: phase 13 Expected:    0 Received:    0 Clock phase reset: 1 Passed!
Channel 67 passed!
Channel: 68
Channel  68: phase 13 Expected:    0 Received:    0 Clock phase reset: 1 Passed!
Channel  68: phase 03 Expected:  585 Received:  585 Clock phase reset: 1 Passed!
Channel  68: phase 16 Expected: 1365 Received: 1364 Clock phase reset: 1 Passed!
Channel  68: phase 06 Expected: 2457 Received: 2457 Clock phase reset: 1 Passed!
Channel  68: phase 1c Expected: 4095 Received: 4094 Clock phase reset: 1 Passed!
Channel  68: phase 0c Expected: 2457 Received: 2456 Clock phase reset: 1 Passed!
Channel  68: phase 19 Expected: 1365 Received: 1364 Clock phase reset: 1 Passed!
Channel  68: phase 09 Expected:  585 Received:  585 Clock phase reset: 1 Passed!
Channel  68: phase 13 Expected:    0 Received:    0 Clock phase reset: 1 Passed!
Channel 68 passed!
Channel: 69
Channel  69: phase 13 Expected:    0 Received:    0 Clock phase reset: 1 Passed!
Channel  69: phase 03 Expected:  585 Received:  579 Clock phase reset: 1 Passed!
Channel  69: phase 16 Expected: 1365 Received: 1365 Clock phase reset: 1 Passed!
Channel  69: phase 06 Expected: 2457 Received: 2426 Clock phase reset: 1 Failed 1 times!
Channel: 69
Channel  69: phase 13 Expected:    0 Received:  446 Clock phase reset: 1 Failed 2 times!
Channel: 69
Channel  69: phase 13 Expected:    0 Received:    0 Clock phase reset: 1 Passed!
Channel  69: phase 03 Expected:  585 Received:    0 Clock phase reset: 1 Failed 3 times!
Channel: 69
Channel  69: phase 13 Expected:    0 Received:    0 Clock phase reset: 1 Passed!
Channel  69: phase 03 Expected:  585 Received:    0 Clock phase reset: 1 Failed 4 times!
Channel: 69
Channel  69: phase 13 Expected:    0 Received:    0 Clock phase reset: 1 Passed!
Channel  69: phase 03 Expected:  585 Received:  585 Clock phase reset: 1 Passed!
Channel  69: phase 16 Expected: 1365 Received: 1364 Clock phase reset: 1 Passed!
Channel  69: phase 06 Expected: 2457 Received: 2456 Clock phase reset: 1 Passed!
Channel  69: phase 1c Expected: 4095 Received: 4092 Clock phase reset: 1 Passed!
Channel  69: phase 0c Expected: 2457 Received: 2455 Clock phase reset: 1 Passed!
Channel  69: phase 19 Expected: 1365 Received: 1364 Clock phase reset: 1 Passed!
Channel  69: phase 09 Expected:  585 Received:  585 Clock phase reset: 1 Passed!
Channel  69: phase 13 Expected:    0 Received:    0 Clock phase reset: 1 Passed!
Channel 69 passed!
Channel: 70
Channel  70: phase 13 Expected:    0 Received:    0 Clock phase reset: 1 Passed!
Channel  70: phase 03 Expected:  585 Received:  585 Clock phase reset: 1 Passed!
Channel  70: phase 16 Expected: 1365 Received: 1364 Clock phase reset: 1 Passed!
Channel  70: phase 06 Expected: 2457 Received: 2457 Clock phase reset: 1 Passed!
Channel  70: phase 1c Expected: 4095 Received: 4094 Clock phase reset: 1 Passed!
Channel  70: phase 0c Expected: 2457 Received: 2457 Clock phase reset: 1 Passed!
Channel  70: phase 19 Expected: 1365 Received: 1364 Clock phase reset: 1 Passed!
Channel  70: phase 09 Expected:  585 Received:  585 Clock phase reset: 1 Passed!
Channel  70: phase 13 Expected:    0 Received:    0 Clock phase reset: 1 Passed!
Channel 70 passed!
Channel: 71
Channel  71: phase 13 Expected:    0 Received:    0 Clock phase reset: 1 Passed!
Channel  71: phase 03 Expected:  585 Received:  585 Clock phase reset: 1 Passed!
Channel  71: phase 16 Expected: 1365 Received: 1366 Clock phase reset: 1 Passed!
Channel  71: phase 06 Expected: 2457 Received: 2457 Clock phase reset: 1 Passed!
Channel  71: phase 1c Expected: 4095 Received: 4092 Clock phase reset: 1 Passed!
Channel  71: phase 0c Expected: 2457 Received: 2457 Clock phase reset: 1 Passed!
Channel  71: phase 19 Expected: 1365 Received: 1366 Clock phase reset: 1 Passed!
Channel  71: phase 09 Expected:  585 Received:  585 Clock phase reset: 1 Passed!
Channel  71: phase 13 Expected:    0 Received:    0 Clock phase reset: 1 Passed!
Channel 71 passed!
Channel: 72
Channel  72: phase 13 Expected:    0 Received:    0 Clock phase reset: 1 Passed!
Channel  72: phase 03 Expected:  585 Received:  585 Clock phase reset: 1 Passed!
Channel  72: phase 16 Expected: 1365 Received: 1366 Clock phase reset: 1 Passed!
Channel  72: phase 06 Expected: 2457 Received: 2454 Clock phase reset: 1 Passed!
Channel  72: phase 1c Expected: 4095 Received: 4094 Clock phase reset: 1 Passed!
Channel  72: phase 0c Expected: 2457 Received: 2457 Clock phase reset: 1 Passed!
Channel  72: phase 19 Expected: 1365 Received: 1366 Clock phase reset: 1 Passed!
Channel  72: phase 09 Expected:  585 Received:  585 Clock phase reset: 1 Passed!
Channel  72: phase 13 Expected:    0 Received:    0 Clock phase reset: 1 Passed!
Channel 72 passed!
Channel: 73
Channel  73: phase 13 Expected:    0 Received:    0 Clock phase reset: 1 Passed!
Channel  73: phase 03 Expected:  585 Received:  585 Clock phase reset: 1 Passed!
Channel  73: phase 16 Expected: 1365 Received: 1364 Clock phase reset: 1 Passed!
Channel  73: phase 06 Expected: 2457 Received: 2457 Clock phase reset: 1 Passed!
Channel  73: phase 1c Expected: 4095 Received: 4094 Clock phase reset: 1 Passed!
Channel  73: phase 0c Expected: 2457 Received: 2457 Clock phase reset: 1 Passed!
Channel  73: phase 19 Expected: 1365 Received: 1364 Clock phase reset: 1 Passed!
Channel  73: phase 09 Expected:  585 Received:  585 Clock phase reset: 1 Passed!
Channel  73: phase 13 Expected:    0 Received:    0 Clock phase reset: 1 Passed!
Channel 73 passed!
Channel: 74
Channel  74: phase 13 Expected:    0 Received:    0 Clock phase reset: 1 Passed!
Channel  74: phase 03 Expected:  585 Received:  585 Clock phase reset: 1 Passed!
Channel  74: phase 16 Expected: 1365 Received: 1366 Clock phase reset: 1 Passed!
Channel  74: phase 06 Expected: 2457 Received: 2457 Clock phase reset: 1 Passed!
Channel  74: phase 1c Expected: 4095 Received: 4092 Clock phase reset: 1 Passed!
Channel  74: phase 0c Expected: 2457 Received: 2457 Clock phase reset: 1 Passed!
Channel  74: phase 19 Expected: 1365 Received: 1366 Clock phase reset: 1 Passed!
Channel  74: phase 09 Expected:  585 Received:  585 Clock phase reset: 1 Passed!
Channel  74: phase 13 Expected:    0 Received:    0 Clock phase reset: 1 Passed!
Channel 74 passed!
Channel: 75
Channel  75: phase 13 Expected:    0 Received:    0 Clock phase reset: 1 Passed!
Channel  75: phase 03 Expected:  585 Received:  585 Clock phase reset: 1 Passed!
Channel  75: phase 16 Expected: 1365 Received: 1366 Clock phase reset: 1 Passed!
Channel  75: phase 06 Expected: 2457 Received: 2454 Clock phase reset: 1 Passed!
Channel  75: phase 1c Expected: 4095 Received: 4094 Clock phase reset: 1 Passed!
Channel  75: phase 0c Expected: 2457 Received: 2457 Clock phase reset: 1 Passed!
Channel  75: phase 19 Expected: 1365 Received: 1366 Clock phase reset: 1 Passed!
Channel  75: phase 09 Expected:  585 Received:  585 Clock phase reset: 1 Passed!
Channel  75: phase 13 Expected:    0 Received:    0 Clock phase reset: 1 Passed!
Channel 75 passed!
Channel: 76
Channel  76: phase 13 Expected:    0 Received:    0 Clock phase reset: 1 Passed!
Channel  76: phase 03 Expected:  585 Received:  585 Clock phase reset: 1 Passed!
Channel  76: phase 16 Expected: 1365 Received: 1364 Clock phase reset: 1 Passed!
Channel  76: phase 06 Expected: 2457 Received: 2456 Clock phase reset: 1 Passed!
Channel  76: phase 1c Expected: 4095 Received: 4092 Clock phase reset: 1 Passed!
Channel  76: phase 0c Expected: 2457 Received: 2455 Clock phase reset: 1 Passed!
Channel  76: phase 19 Expected: 1365 Received: 1364 Clock phase reset: 1 Passed!
Channel  76: phase 09 Expected:  585 Received:  585 Clock phase reset: 1 Passed!
Channel  76: phase 13 Expected:    0 Received:    0 Clock phase reset: 1 Passed!
Channel 76 passed!
Channel: 77
Channel  77: phase 13 Expected:    0 Received:    0 Clock phase reset: 1 Passed!
Channel  77: phase 03 Expected:  585 Received:  585 Clock phase reset: 1 Passed!
Channel  77: phase 16 Expected: 1365 Received: 1364 Clock phase reset: 1 Passed!
Channel  77: phase 06 Expected: 2457 Received: 2457 Clock phase reset: 1 Passed!
Channel  77: phase 1c Expected: 4095 Received: 4094 Clock phase reset: 1 Passed!
Channel  77: phase 0c Expected: 2457 Received: 2457 Clock phase reset: 1 Passed!
Channel  77: phase 19 Expected: 1365 Received: 1364 Clock phase reset: 1 Passed!
Channel  77: phase 09 Expected:  585 Received:  585 Clock phase reset: 1 Passed!
Channel  77: phase 13 Expected:    0 Received:    0 Clock phase reset: 1 Passed!
Channel 77 passed!
Channel: 78
Channel  78: phase 13 Expected:    0 Received:    0 Clock phase reset: 1 Passed!
Channel  78: phase 03 Expected:  585 Received:  584 Clock phase reset: 1 Passed!
Channel  78: phase 16 Expected: 1365 Received: 1366 Clock phase reset: 1 Passed!
Channel  78: phase 06 Expected: 2457 Received: 2457 Clock phase reset: 1 Passed!
Channel  78: phase 1c Expected: 4095 Received: 4092 Clock phase reset: 1 Passed!
Channel  78: phase 0c Expected: 2457 Received: 2457 Clock phase reset: 1 Passed!
Channel  78: phase 19 Expected: 1365 Received: 1366 Clock phase reset: 1 Passed!
Channel  78: phase 09 Expected:  585 Received:  585 Clock phase reset: 1 Passed!
Channel  78: phase 13 Expected:    0 Received:    0 Clock phase reset: 1 Passed!
Channel 78 passed!
Channel: 79
Channel  79: phase 13 Expected:    0 Received:    0 Clock phase reset: 1 Passed!
Channel  79: phase 03 Expected:  585 Received:  585 Clock phase reset: 1 Passed!
Channel  79: phase 16 Expected: 1365 Received: 1366 Clock phase reset: 1 Passed!
Channel  79: phase 06 Expected: 2457 Received: 2454 Clock phase reset: 1 Passed!
Channel  79: phase 1c Expected: 4095 Received: 4093 Clock phase reset: 1 Passed!
Channel  79: phase 0c Expected: 2457 Received: 2457 Clock phase reset: 1 Passed!
Channel  79: phase 19 Expected: 1365 Received: 1366 Clock phase reset: 1 Passed!
Channel  79: phase 09 Expected:  585 Received:  585 Clock phase reset: 1 Passed!
Channel  79: phase 13 Expected:    0 Received:    0 Clock phase reset: 1 Passed!
Channel 79 passed!
Channel: 80
Channel  80: phase 13 Expected:    0 Received:  436 Clock phase reset: 1 Failed 1 times!
Channel: 80
Channel  80: phase 13 Expected:    0 Received:    0 Clock phase reset: 1 Passed!
Channel  80: phase 03 Expected:  585 Received:    0 Clock phase reset: 1 Failed 2 times!
Channel: 80
Channel  80: phase 13 Expected:    0 Received:    0 Clock phase reset: 1 Passed!
Channel  80: phase 03 Expected:  585 Received:    0 Clock phase reset: 1 Failed 3 times!
Channel: 80
Channel  80: phase 13 Expected:    0 Received:    0 Clock phase reset: 1 Passed!
Channel  80: phase 03 Expected:  585 Received:  585 Clock phase reset: 1 Passed!
Channel  80: phase 16 Expected: 1365 Received: 1366 Clock phase reset: 1 Passed!
Channel  80: phase 06 Expected: 2457 Received: 2455 Clock phase reset: 1 Passed!
Channel  80: phase 1c Expected: 4095 Received: 4092 Clock phase reset: 1 Passed!
Channel  80: phase 0c Expected: 2457 Received: 2457 Clock phase reset: 1 Passed!
Channel  80: phase 19 Expected: 1365 Received: 1364 Clock phase reset: 1 Passed!
Channel  80: phase 09 Expected:  585 Received:  584 Clock phase reset: 1 Passed!
Channel  80: phase 13 Expected:    0 Received:    0 Clock phase reset: 1 Passed!
Channel 80 passed!
Channel: 81
Channel  81: phase 13 Expected:    0 Received:    0 Clock phase reset: 1 Passed!
Channel  81: phase 03 Expected:  585 Received:  585 Clock phase reset: 1 Passed!
Channel  81: phase 16 Expected: 1365 Received: 1364 Clock phase reset: 1 Passed!
Channel  81: phase 06 Expected: 2457 Received: 2456 Clock phase reset: 1 Passed!
Channel  81: phase 1c Expected: 4095 Received: 4093 Clock phase reset: 1 Passed!
Channel  81: phase 0c Expected: 2457 Received: 2455 Clock phase reset: 1 Passed!
Channel  81: phase 19 Expected: 1365 Received: 1364 Clock phase reset: 1 Passed!
Channel  81: phase 09 Expected:  585 Received:  585 Clock phase reset: 1 Passed!
Channel  81: phase 13 Expected:    0 Received:    0 Clock phase reset: 1 Passed!
Channel 81 passed!
Channel: 82
Channel  82: phase 13 Expected:    0 Received:    0 Clock phase reset: 1 Passed!
Channel  82: phase 03 Expected:  585 Received:  585 Clock phase reset: 1 Passed!
Channel  82: phase 16 Expected: 1365 Received: 1364 Clock phase reset: 1 Passed!
Channel  82: phase 06 Expected: 2457 Received: 2457 Clock phase reset: 1 Passed!
Channel  82: phase 1c Expected: 4095 Received: 4094 Clock phase reset: 1 Passed!
Channel  82: phase 0c Expected: 2457 Received: 2456 Clock phase reset: 1 Passed!
Channel  82: phase 19 Expected: 1365 Received: 1364 Clock phase reset: 1 Passed!
Channel  82: phase 09 Expected:  585 Received:  585 Clock phase reset: 1 Passed!
Channel  82: phase 13 Expected:    0 Received:    0 Clock phase reset: 1 Passed!
Channel 82 passed!
Channel: 83
Channel  83: phase 13 Expected:    0 Received:    0 Clock phase reset: 1 Passed!
Channel  83: phase 03 Expected:  585 Received:  584 Clock phase reset: 1 Passed!
Channel  83: phase 16 Expected: 1365 Received: 1365 Clock phase reset: 1 Passed!
Channel  83: phase 06 Expected: 2457 Received: 2457 Clock phase reset: 1 Passed!
Channel  83: phase 1c Expected: 4095 Received: 4092 Clock phase reset: 1 Passed!
Channel  83: phase 0c Expected: 2457 Received: 2457 Clock phase reset: 1 Passed!
Channel  83: phase 19 Expected: 1365 Received: 1365 Clock phase reset: 1 Passed!
Channel  83: phase 09 Expected:  585 Received:  585 Clock phase reset: 1 Passed!
Channel  83: phase 13 Expected:    0 Received:    0 Clock phase reset: 1 Passed!
Channel 83 passed!
Channel: 84
Channel  84: phase 13 Expected:    0 Received:    0 Clock phase reset: 1 Passed!
Channel  84: phase 03 Expected:  585 Received:  585 Clock phase reset: 1 Passed!
Channel  84: phase 16 Expected: 1365 Received: 1366 Clock phase reset: 1 Passed!
Channel  84: phase 06 Expected: 2457 Received: 2457 Clock phase reset: 1 Passed!
Channel  84: phase 1c Expected: 4095 Received: 4093 Clock phase reset: 1 Passed!
Channel  84: phase 0c Expected: 2457 Received: 2457 Clock phase reset: 1 Passed!
Channel  84: phase 19 Expected: 1365 Received: 1366 Clock phase reset: 1 Passed!
Channel  84: phase 09 Expected:  585 Received:  585 Clock phase reset: 1 Passed!
Channel  84: phase 13 Expected:    0 Received:    0 Clock phase reset: 1 Passed!
Channel 84 passed!
Channel: 85
Channel  85: phase 13 Expected:    0 Received:    0 Clock phase reset: 1 Passed!
Channel  85: phase 03 Expected:  585 Received:  585 Clock phase reset: 1 Passed!
Channel  85: phase 16 Expected: 1365 Received: 1364 Clock phase reset: 1 Passed!
Channel  85: phase 06 Expected: 2457 Received: 2455 Clock phase reset: 1 Passed!
Channel  85: phase 1c Expected: 4095 Received: 4092 Clock phase reset: 1 Passed!
Channel  85: phase 0c Expected: 2457 Received: 2454 Clock phase reset: 1 Passed!
Channel  85: phase 19 Expected: 1365 Received: 1364 Clock phase reset: 1 Passed!
Channel  85: phase 09 Expected:  585 Received:  584 Clock phase reset: 1 Passed!
Channel  85: phase 13 Expected:    0 Received:    0 Clock phase reset: 1 Passed!
Channel 85 passed!
Channel: 86
Channel  86: phase 13 Expected:    0 Received:    0 Clock phase reset: 1 Passed!
Channel  86: phase 03 Expected:  585 Received:  585 Clock phase reset: 1 Passed!
Channel  86: phase 16 Expected: 1365 Received: 1364 Clock phase reset: 1 Passed!
Channel  86: phase 06 Expected: 2457 Received: 2457 Clock phase reset: 1 Passed!
Channel  86: phase 1c Expected: 4095 Received: 4093 Clock phase reset: 1 Passed!
Channel  86: phase 0c Expected: 2457 Received: 2456 Clock phase reset: 1 Passed!
Channel  86: phase 19 Expected: 1365 Received: 1364 Clock phase reset: 1 Passed!
Channel  86: phase 09 Expected:  585 Received:  585 Clock phase reset: 1 Passed!
Channel  86: phase 13 Expected:    0 Received:    0 Clock phase reset: 1 Passed!
Channel 86 passed!
Channel: 87
Channel  87: phase 13 Expected:    0 Received:    0 Clock phase reset: 1 Passed!
Channel  87: phase 03 Expected:  585 Received:  584 Clock phase reset: 1 Passed!
Channel  87: phase 16 Expected: 1365 Received: 1365 Clock phase reset: 1 Passed!
Channel  87: phase 06 Expected: 2457 Received: 2457 Clock phase reset: 1 Passed!
Channel  87: phase 1c Expected: 4095 Received: 4092 Clock phase reset: 1 Passed!
Channel  87: phase 0c Expected: 2457 Received: 2457 Clock phase reset: 1 Passed!
Channel  87: phase 19 Expected: 1365 Received: 1364 Clock phase reset: 1 Passed!
Channel  87: phase 09 Expected:  585 Received:  585 Clock phase reset: 1 Passed!
Channel  87: phase 13 Expected:    0 Received:    0 Clock phase reset: 1 Passed!
Channel 87 passed!
Channel: 88
Channel  88: phase 13 Expected:    0 Received:    0 Clock phase reset: 1 Passed!
Channel  88: phase 03 Expected:  585 Received:  585 Clock phase reset: 1 Passed!
Channel  88: phase 16 Expected: 1365 Received: 1366 Clock phase reset: 1 Passed!
Channel  88: phase 06 Expected: 2457 Received: 2457 Clock phase reset: 1 Passed!
Channel  88: phase 1c Expected: 4095 Received: 4093 Clock phase reset: 1 Passed!
Channel  88: phase 0c Expected: 2457 Received: 2457 Clock phase reset: 1 Passed!
Channel  88: phase 19 Expected: 1365 Received: 1366 Clock phase reset: 1 Passed!
Channel  88: phase 09 Expected:  585 Received:  585 Clock phase reset: 1 Passed!
Channel  88: phase 13 Expected:    0 Received:    0 Clock phase reset: 1 Passed!
Channel 88 passed!
Channel: 89
Channel  89: phase 13 Expected:    0 Received:    0 Clock phase reset: 1 Passed!
Channel  89: phase 03 Expected:  585 Received:  585 Clock phase reset: 1 Passed!
Channel  89: phase 16 Expected: 1365 Received: 1366 Clock phase reset: 1 Passed!
Channel  89: phase 06 Expected: 2457 Received: 2455 Clock phase reset: 1 Passed!
Channel  89: phase 1c Expected: 4095 Received: 4092 Clock phase reset: 1 Passed!
Channel  89: phase 0c Expected: 2457 Received: 2457 Clock phase reset: 1 Passed!
Channel  89: phase 19 Expected: 1365 Received: 1364 Clock phase reset: 1 Passed!
Channel  89: phase 09 Expected:  585 Received:  584 Clock phase reset: 1 Passed!
Channel  89: phase 13 Expected:    0 Received:    0 Clock phase reset: 1 Passed!
Channel 89 passed!
Channel: 90
Channel  90: phase 13 Expected:    0 Received:    0 Clock phase reset: 1 Passed!
Channel  90: phase 03 Expected:  585 Received:  585 Clock phase reset: 1 Passed!
Channel  90: phase 16 Expected: 1365 Received: 1364 Clock phase reset: 1 Passed!
Channel  90: phase 06 Expected: 2457 Received: 2456 Clock phase reset: 1 Passed!
Channel  90: phase 1c Expected: 4095 Received: 4093 Clock phase reset: 1 Passed!
Channel  90: phase 0c Expected: 2457 Received: 2455 Clock phase reset: 1 Passed!
Channel  90: phase 19 Expected: 1365 Received: 1364 Clock phase reset: 1 Passed!
Channel  90: phase 09 Expected:  585 Received:  585 Clock phase reset: 1 Passed!
Channel  90: phase 13 Expected:    0 Received:    0 Clock phase reset: 1 Passed!
Channel 90 passed!
Channel: 91
Channel  91: phase 13 Expected:    0 Received:    0 Clock phase reset: 1 Passed!
Channel  91: phase 03 Expected:  585 Received:  585 Clock phase reset: 1 Passed!
Channel  91: phase 16 Expected: 1365 Received: 1364 Clock phase reset: 1 Passed!
Channel  91: phase 06 Expected: 2457 Received: 2457 Clock phase reset: 1 Passed!
Channel  91: phase 1c Expected: 4095 Received: 4092 Clock phase reset: 1 Passed!
Channel  91: phase 0c Expected: 2457 Received: 2456 Clock phase reset: 1 Passed!
Channel  91: phase 19 Expected: 1365 Received: 1364 Clock phase reset: 1 Passed!
Channel  91: phase 09 Expected:  585 Received:  585 Clock phase reset: 1 Passed!
Channel  91: phase 13 Expected:    0 Received:    0 Clock phase reset: 1 Passed!
Channel 91 passed!
Channel: 92
Channel  92: phase 13 Expected:    0 Received:    0 Clock phase reset: 1 Passed!
Channel  92: phase 03 Expected:  585 Received:  445 Clock phase reset: 1 Failed 1 times!
Channel: 92
Channel  92: phase 13 Expected:    0 Received:  454 Clock phase reset: 1 Failed 2 times!
Channel: 92
Channel  92: phase 13 Expected:    0 Received:    0 Clock phase reset: 1 Passed!
Channel  92: phase 03 Expected:  585 Received:    0 Clock phase reset: 1 Failed 3 times!
Channel: 92
Channel  92: phase 13 Expected:    0 Received:    0 Clock phase reset: 1 Passed!
Channel  92: phase 03 Expected:  585 Received:    0 Clock phase reset: 1 Failed 4 times!
Channel: 92
Channel  92: phase 13 Expected:    0 Received:    0 Clock phase reset: 1 Passed!
Channel  92: phase 03 Expected:  585 Received:  585 Clock phase reset: 1 Passed!
Channel  92: phase 16 Expected: 1365 Received: 1364 Clock phase reset: 1 Passed!
Channel  92: phase 06 Expected: 2457 Received: 2456 Clock phase reset: 1 Passed!
Channel  92: phase 1c Expected: 4095 Received: 4092 Clock phase reset: 1 Passed!
Channel  92: phase 0c Expected: 2457 Received: 2455 Clock phase reset: 1 Passed!
Channel  92: phase 19 Expected: 1365 Received: 1364 Clock phase reset: 1 Passed!
Channel  92: phase 09 Expected:  585 Received:  585 Clock phase reset: 1 Passed!
Channel  92: phase 13 Expected:    0 Received:    0 Clock phase reset: 1 Passed!
Channel 92 passed!
Channel: 93
Channel  93: phase 13 Expected:    0 Received:    0 Clock phase reset: 1 Passed!
Channel  93: phase 03 Expected:  585 Received:  585 Clock phase reset: 1 Passed!
Channel  93: phase 16 Expected: 1365 Received: 1364 Clock phase reset: 1 Passed!
Channel  93: phase 06 Expected: 2457 Received: 2457 Clock phase reset: 1 Passed!
Channel  93: phase 1c Expected: 4095 Received: 4094 Clock phase reset: 1 Passed!
Channel  93: phase 0c Expected: 2457 Received: 2456 Clock phase reset: 1 Passed!
Channel  93: phase 19 Expected: 1365 Received: 1364 Clock phase reset: 1 Passed!
Channel  93: phase 09 Expected:  585 Received:  585 Clock phase reset: 1 Passed!
Channel  93: phase 13 Expected:    0 Received:    0 Clock phase reset: 1 Passed!
Channel 93 passed!
Channel: 94
Channel  94: phase 13 Expected:    0 Received:    0 Clock phase reset: 1 Passed!
Channel  94: phase 03 Expected:  585 Received:  584 Clock phase reset: 1 Passed!
Channel  94: phase 16 Expected: 1365 Received: 1365 Clock phase reset: 1 Passed!
Channel  94: phase 06 Expected: 2457 Received: 2457 Clock phase reset: 1 Passed!
Channel  94: phase 1c Expected: 4095 Received: 4092 Clock phase reset: 1 Passed!
Channel  94: phase 0c Expected: 2457 Received: 2457 Clock phase reset: 1 Passed!
Channel  94: phase 19 Expected: 1365 Received: 1366 Clock phase reset: 1 Passed!
Channel  94: phase 09 Expected:  585 Received:  585 Clock phase reset: 1 Passed!
Channel  94: phase 13 Expected:    0 Received:    0 Clock phase reset: 1 Passed!
Channel 94 passed!
Channel: 95
Channel  95: phase 13 Expected:    0 Received:    0 Clock phase reset: 1 Passed!
Channel  95: phase 03 Expected:  585 Received:  585 Clock phase reset: 1 Passed!
Channel  95: phase 16 Expected: 1365 Received: 1366 Clock phase reset: 1 Passed!
Channel  95: phase 06 Expected: 2457 Received: 2457 Clock phase reset: 1 Passed!
Channel  95: phase 1c Expected: 4095 Received: 4094 Clock phase reset: 1 Passed!
Channel  95: phase 0c Expected: 2457 Received: 2457 Clock phase reset: 1 Passed!
Channel  95: phase 19 Expected: 1365 Received: 1366 Clock phase reset: 1 Passed!
Channel  95: phase 09 Expected:  585 Received:  585 Clock phase reset: 1 Passed!
Channel  95: phase 13 Expected:    0 Received:    0 Clock phase reset: 1 Passed!
Channel 95 passed!
Channel: 96
Channel  96: phase 13 Expected:    0 Received:    0 Clock phase reset: 1 Passed!
Channel  96: phase 03 Expected:  585 Received:  585 Clock phase reset: 1 Passed!
Channel  96: phase 16 Expected: 1365 Received: 1364 Clock phase reset: 1 Passed!
Channel  96: phase 06 Expected: 2457 Received: 2455 Clock phase reset: 1 Passed!
Channel  96: phase 1c Expected: 4095 Received: 4092 Clock phase reset: 1 Passed!
Channel  96: phase 0c Expected: 2457 Received: 2454 Clock phase reset: 1 Passed!
Channel  96: phase 19 Expected: 1365 Received: 1364 Clock phase reset: 1 Passed!
Channel  96: phase 09 Expected:  585 Received:  584 Clock phase reset: 1 Passed!
Channel  96: phase 13 Expected:    0 Received:    0 Clock phase reset: 1 Passed!
Channel 96 passed!
Channel: 97
Channel  97: phase 13 Expected:    0 Received:    0 Clock phase reset: 1 Passed!
Channel  97: phase 03 Expected:  585 Received:  585 Clock phase reset: 1 Passed!
Channel  97: phase 16 Expected: 1365 Received: 1364 Clock phase reset: 1 Passed!
Channel  97: phase 06 Expected: 2457 Received: 2457 Clock phase reset: 1 Passed!
Channel  97: phase 1c Expected: 4095 Received: 4093 Clock phase reset: 1 Passed!
Channel  97: phase 0c Expected: 2457 Received: 2455 Clock phase reset: 1 Passed!
Channel  97: phase 19 Expected: 1365 Received: 1364 Clock phase reset: 1 Passed!
Channel  97: phase 09 Expected:  585 Received:  585 Clock phase reset: 1 Passed!
Channel  97: phase 13 Expected:    0 Received:    0 Clock phase reset: 1 Passed!
Channel 97 passed!
Channel: 98
Channel  98: phase 13 Expected:    0 Received:    0 Clock phase reset: 1 Passed!
Channel  98: phase 03 Expected:  585 Received:  584 Clock phase reset: 1 Passed!
Channel  98: phase 16 Expected: 1365 Received: 1365 Clock phase reset: 1 Passed!
Channel  98: phase 06 Expected: 2457 Received: 2457 Clock phase reset: 1 Passed!
Channel  98: phase 1c Expected: 4095 Received: 4092 Clock phase reset: 1 Passed!
Channel  98: phase 0c Expected: 2457 Received: 2457 Clock phase reset: 1 Passed!
Channel  98: phase 19 Expected: 1365 Received: 1365 Clock phase reset: 1 Passed!
Channel  98: phase 09 Expected:  585 Received:  585 Clock phase reset: 1 Passed!
Channel  98: phase 13 Expected:    0 Received:    0 Clock phase reset: 1 Passed!
Channel 98 passed!
Channel: 99
Channel  99: phase 13 Expected:    0 Received:    0 Clock phase reset: 1 Passed!
Channel  99: phase 03 Expected:  585 Received:  585 Clock phase reset: 1 Passed!
Channel  99: phase 16 Expected: 1365 Received: 1366 Clock phase reset: 1 Passed!
Channel  99: phase 06 Expected: 2457 Received: 2457 Clock phase reset: 1 Passed!
Channel  99: phase 1c Expected: 4095 Received: 4093 Clock phase reset: 1 Passed!
Channel  99: phase 0c Expected: 2457 Received: 2457 Clock phase reset: 1 Passed!
Channel  99: phase 19 Expected: 1365 Received: 1366 Clock phase reset: 1 Passed!
Channel  99: phase 09 Expected:  585 Received:  585 Clock phase reset: 1 Passed!
Channel  99: phase 13 Expected:    0 Received:    0 Clock phase reset: 1 Passed!
Channel 99 passed!
Channel: 100
Channel 100: phase 13 Expected:    0 Received:    0 Clock phase reset: 1 Passed!
Channel 100: phase 03 Expected:  585 Received:  585 Clock phase reset: 1 Passed!
Channel 100: phase 16 Expected: 1365 Received: 1364 Clock phase reset: 1 Passed!
Channel 100: phase 06 Expected: 2457 Received: 2455 Clock phase reset: 1 Passed!
Channel 100: phase 1c Expected: 4095 Received: 4092 Clock phase reset: 1 Passed!
Channel 100: phase 0c Expected: 2457 Received: 2454 Clock phase reset: 1 Passed!
Channel 100: phase 19 Expected: 1365 Received: 1366 Clock phase reset: 1 Passed!
Channel 100: phase 09 Expected:  585 Received:  584 Clock phase reset: 1 Passed!
Channel 100: phase 13 Expected:    0 Received:    0 Clock phase reset: 1 Passed!
Channel 100 passed!
Channel: 101
Channel 101: phase 13 Expected:    0 Received:    0 Clock phase reset: 1 Passed!
Channel 101: phase 03 Expected:  585 Received:  585 Clock phase reset: 1 Passed!
Channel 101: phase 16 Expected: 1365 Received: 1364 Clock phase reset: 1 Passed!
Channel 101: phase 06 Expected: 2457 Received: 2457 Clock phase reset: 1 Passed!
Channel 101: phase 1c Expected: 4095 Received: 4094 Clock phase reset: 1 Passed!
Channel 101: phase 0c Expected: 2457 Received: 2457 Clock phase reset: 1 Passed!
Channel 101: phase 19 Expected: 1365 Received: 1364 Clock phase reset: 1 Passed!
Channel 101: phase 09 Expected:  585 Received:  585 Clock phase reset: 1 Passed!
Channel 101: phase 13 Expected:    0 Received:    0 Clock phase reset: 1 Passed!
Channel 101 passed!
Channel: 102
Channel 102: phase 13 Expected:    0 Received:    0 Clock phase reset: 1 Passed!
Channel 102: phase 03 Expected:  585 Received:  584 Clock phase reset: 1 Passed!
Channel 102: phase 16 Expected: 1365 Received: 1366 Clock phase reset: 1 Passed!
Channel 102: phase 06 Expected: 2457 Received: 2457 Clock phase reset: 1 Passed!
Channel 102: phase 1c Expected: 4095 Received: 4092 Clock phase reset: 1 Passed!
Channel 102: phase 0c Expected: 2457 Received: 2457 Clock phase reset: 1 Passed!
Channel 102: phase 19 Expected: 1365 Received: 1366 Clock phase reset: 1 Passed!
Channel 102: phase 09 Expected:  585 Received:  585 Clock phase reset: 1 Passed!
Channel 102: phase 13 Expected:    0 Received:    0 Clock phase reset: 1 Passed!
Channel 102 passed!
Channel: 103
Channel 103: phase 13 Expected:    0 Received:  577 Clock phase reset: 1 Failed 1 times!
Channel: 103
Channel 103: phase 13 Expected:    0 Received:    0 Clock phase reset: 1 Passed!
Channel 103: phase 03 Expected:  585 Received:    0 Clock phase reset: 1 Failed 2 times!
Channel: 103
Channel 103: phase 13 Expected:    0 Received:    0 Clock phase reset: 1 Passed!
Channel 103: phase 03 Expected:  585 Received:    0 Clock phase reset: 1 Failed 3 times!
Channel: 103
Channel 103: phase 13 Expected:    0 Received:    0 Clock phase reset: 1 Passed!
Channel 103: phase 03 Expected:  585 Received:  585 Clock phase reset: 1 Passed!
Channel 103: phase 16 Expected: 1365 Received: 1364 Clock phase reset: 1 Passed!
Channel 103: phase 06 Expected: 2457 Received: 2456 Clock phase reset: 1 Passed!
Channel 103: phase 1c Expected: 4095 Received: 4093 Clock phase reset: 1 Passed!
Channel 103: phase 0c Expected: 2457 Received: 2455 Clock phase reset: 1 Passed!
Channel 103: phase 19 Expected: 1365 Received: 1364 Clock phase reset: 1 Passed!
Channel 103: phase 09 Expected:  585 Received:  585 Clock phase reset: 1 Passed!
Channel 103: phase 13 Expected:    0 Received:    0 Clock phase reset: 1 Passed!
Channel 103 passed!

TestPad_Mode Passed!

End Time: 2018-08-06 12:27:21.140936
========================
Test Results for chip TDSV2-00115 on board FPGA-2
I2C:Success
PRBS:Success
Router_Protocol:Success
Trigger:Success
Bypass_Trigger:Success
Pad_Mode:Success
